==Frequent itemsets (min_sup=7.0%)

['THURSDAY', '3:00-4:00AM#VERY_LOW'],	13%

['WEDNESDAY', '3:00-4:00AM#VERY_LOW'],	13%

['TUESDAY', '3:00-4:00AM#VERY_LOW'],	13%

['TUESDAY', '2:00-3:00AM#VERY_LOW'],	12%

['FRIDAY', '3:00-4:00AM#VERY_LOW'],	12%

['WEDNESDAY', '2:00-3:00AM#VERY_LOW'],	12%

['TUESDAY', '2:00-3:00AM#VERY_LOW', '3:00-4:00AM#VERY_LOW'],	11%

['THURSDAY', '2:00-3:00AM#VERY_LOW'],	11%

['WEDNESDAY', '2:00-3:00AM#VERY_LOW', '3:00-4:00AM#VERY_LOW'],	11%

['THURSDAY', '2:00-3:00AM#VERY_LOW', '3:00-4:00AM#VERY_LOW'],	11%

['TUESDAY', '12:00-1:00AM#LOW'],	10%

['THURSDAY', '12:00-1:00AM#LOW'],	10%

['FRIDAY', '2:00-3:00AM#VERY_LOW', '3:00-4:00AM#VERY_LOW'],	10%

['FRIDAY', '12:00-1:00AM#LOW'],	10%

['WEDNESDAY', '12:00-1:00AM#LOW'],	10%

['FRIDAY', '2:00-3:00AM#VERY_LOW'],	10%

['FRIDAY', '4:00-5:00PM#VERY_LOW', '5:00-6:00PM#VERY_LOW', '6:00-7:00PM#VERY_LOW', '8:00-9:00PM#VERY_LOW'],	9%

['FRIDAY', '4:00-5:00PM#VERY_LOW', '6:00-7:00PM#VERY_LOW'],	9%

['FRIDAY', '4:00-5:00PM#VERY_LOW', '5:00-6:00PM#VERY_LOW'],	9%

['WEDNESDAY', '1:00-2:00AM#LOW'],	9%

['TUESDAY', '5:00-6:00AM#LOW'],	9%

['TUESDAY', '5:00-6:00PM#VERY_HIGH'],	9%

['FRIDAY', '8:00-9:00PM#VERY_LOW'],	9%

['FRIDAY', '1:00-2:00AM#LOW'],	9%

['FRIDAY', '5:00-6:00PM#VERY_LOW'],	9%

['FRIDAY', '4:00-5:00PM#VERY_LOW', '6:00-7:00PM#VERY_LOW', '8:00-9:00PM#VERY_LOW'],	9%

['THURSDAY', '1:00-2:00AM#LOW'],	9%

['FRIDAY', '5:00-6:00PM#VERY_LOW', '6:00-7:00PM#VERY_LOW', '8:00-9:00PM#VERY_LOW'],	9%

['FRIDAY', '4:00-5:00PM#VERY_LOW', '8:00-9:00PM#VERY_LOW'],	9%

['FRIDAY', '4:00-5:00PM#VERY_LOW', '5:00-6:00PM#VERY_LOW', '6:00-7:00PM#VERY_LOW'],	9%

['FRIDAY', '4:00-5:00PM#VERY_LOW'],	9%

['THURSDAY', '5:00-6:00AM#LOW'],	9%

['FRIDAY', '6:00-7:00PM#VERY_LOW'],	9%

['WEDNESDAY', '3:00-4:00PM#VERY_HIGH'],	9%

['FRIDAY', '5:00-6:00AM#LOW'],	9%

['WEDNESDAY', '5:00-6:00AM#LOW'],	9%

['THURSDAY', '8:00-9:00AM#VERY_HIGH'],	9%

['FRIDAY', '5:00-6:00PM#VERY_LOW', '6:00-7:00PM#VERY_LOW'],	9%

['WEDNESDAY', '4:00-5:00PM#VERY_HIGH'],	9%

['THURSDAY', '3:00-4:00PM#VERY_HIGH'],	9%

['FRIDAY', '6:00-7:00PM#VERY_LOW', '8:00-9:00PM#VERY_LOW'],	9%

['WEDNESDAY', '5:00-6:00PM#VERY_HIGH'],	9%

['FRIDAY', '5:00-6:00PM#VERY_LOW', '8:00-9:00PM#VERY_LOW'],	9%

['FRIDAY', '4:00-5:00PM#VERY_LOW', '5:00-6:00PM#VERY_LOW', '8:00-9:00PM#VERY_LOW'],	9%

['WEDNESDAY', '3:00-4:00PM#VERY_HIGH', '4:00-5:00PM#VERY_HIGH', '6:00-7:00PM#VERY_HIGH'],	8%

['FRIDAY', '3:00-4:00PM#VERY_LOW', '4:00-5:00PM#VERY_LOW', '5:00-6:00PM#VERY_LOW'],	8%

['TUESDAY', '1:00-2:00AM#VERY_LOW', '3:00-4:00AM#VERY_LOW'],	8%

['FRIDAY', '3:00-4:00PM#VERY_LOW', '4:00-5:00PM#VERY_LOW', '6:00-7:00PM#VERY_LOW', '8:00-9:00PM#VERY_LOW'],	8%

['WEDNESDAY', '10:00-11:00PM#MED'],	8%

['FRIDAY', '3:00-4:00PM#VERY_LOW', '6:00-7:00PM#VERY_LOW'],	8%

['WEDNESDAY', '3:00-4:00PM#VERY_HIGH', '6:00-7:00PM#VERY_HIGH'],	8%

['TUESDAY', '8:00-9:00AM#VERY_HIGH'],	8%

['FRIDAY', '3:00-4:00PM#VERY_LOW', '4:00-5:00PM#VERY_LOW', '5:00-6:00PM#VERY_LOW', '8:00-9:00PM#VERY_LOW'],	8%

['WEDNESDAY', '3:00-4:00PM#VERY_HIGH', '4:00-5:00PM#VERY_HIGH', '5:00-6:00PM#VERY_HIGH'],	8%

['FRIDAY', '3:00-4:00PM#VERY_LOW', '5:00-6:00PM#VERY_LOW', '8:00-9:00PM#VERY_LOW'],	8%

['TUESDAY', '3:00-4:00PM#VERY_HIGH', '4:00-5:00PM#VERY_HIGH'],	8%

['TUESDAY', '3:00-4:00PM#VERY_HIGH', '5:00-6:00PM#VERY_HIGH'],	8%

['FRIDAY', '3:00-4:00PM#VERY_LOW', '4:00-5:00PM#VERY_LOW', '5:00-6:00PM#VERY_LOW', '6:00-7:00PM#VERY_LOW', '8:00-9:00PM#VERY_LOW'],	8%

['WEDNESDAY', '4:00-5:00PM#VERY_HIGH', '6:00-7:00PM#VERY_HIGH'],	8%

['FRIDAY', '3:00-4:00PM#VERY_LOW', '6:00-7:00PM#VERY_LOW', '8:00-9:00PM#VERY_LOW'],	8%

['WEDNESDAY', '5:00-6:00PM#VERY_HIGH', '6:00-7:00PM#VERY_HIGH'],	8%

['WEDNESDAY', '4:00-5:00PM#VERY_HIGH', '5:00-6:00PM#VERY_HIGH'],	8%

['TUESDAY', '3:00-4:00PM#VERY_HIGH'],	8%

['WEDNESDAY', '3:00-4:00PM#VERY_HIGH', '5:00-6:00PM#VERY_HIGH'],	8%

['TUESDAY', '1:00-2:00AM#LOW'],	8%

['FRIDAY', '3:00-4:00PM#VERY_LOW', '5:00-6:00PM#VERY_LOW', '6:00-7:00PM#VERY_LOW', '8:00-9:00PM#VERY_LOW'],	8%

['TUESDAY', '4:00-5:00PM#VERY_HIGH', '5:00-6:00PM#VERY_HIGH'],	8%

['FRIDAY', '3:00-4:00PM#VERY_LOW', '5:00-6:00PM#VERY_LOW'],	8%

['WEDNESDAY', '1:00-2:00AM#VERY_LOW', '3:00-4:00AM#VERY_LOW'],	8%

['WEDNESDAY', '6:00-7:00PM#VERY_HIGH'],	8%

['FRIDAY', '8:00-9:00AM#VERY_HIGH'],	8%

['TUESDAY', '1:00-2:00AM#VERY_LOW', '2:00-3:00AM#VERY_LOW'],	8%

['WEDNESDAY', '3:00-4:00PM#VERY_HIGH', '4:00-5:00PM#VERY_HIGH'],	8%

['TUESDAY', '4:00-5:00PM#VERY_HIGH'],	8%

['THURSDAY', '3:00-4:00PM#VERY_HIGH', '6:00-7:00PM#VERY_HIGH'],	8%

['THURSDAY', '1:00-2:00AM#VERY_LOW'],	8%

['WEDNESDAY', '1:00-2:00AM#VERY_LOW', '2:00-3:00AM#VERY_LOW'],	8%

['WEDNESDAY', '3:00-4:00PM#VERY_HIGH', '4:00-5:00PM#VERY_HIGH', '5:00-6:00PM#VERY_HIGH', '6:00-7:00PM#VERY_HIGH'],	8%

['FRIDAY', '3:00-4:00PM#VERY_LOW', '4:00-5:00PM#VERY_LOW'],	8%

['WEDNESDAY', '8:00-9:00AM#VERY_HIGH'],	8%

['FRIDAY', '3:00-4:00PM#VERY_LOW', '8:00-9:00PM#VERY_LOW'],	8%

['FRIDAY', '3:00-4:00PM#VERY_LOW', '4:00-5:00PM#VERY_LOW', '5:00-6:00PM#VERY_LOW', '6:00-7:00PM#VERY_LOW'],	8%

['THURSDAY', '6:00-7:00PM#VERY_HIGH'],	8%

['THURSDAY', '11:00-12:00AM#LOW'],	8%

['WEDNESDAY', '4:00-5:00PM#VERY_HIGH', '5:00-6:00PM#VERY_HIGH', '6:00-7:00PM#VERY_HIGH'],	8%

['FRIDAY', '12:00-1:00AM#LOW', '3:00-4:00AM#VERY_LOW'],	8%

['TUESDAY', '1:00-2:00AM#VERY_LOW'],	8%

['TUESDAY', '1:00-2:00AM#VERY_LOW', '2:00-3:00AM#VERY_LOW', '3:00-4:00AM#VERY_LOW'],	8%

['FRIDAY', '3:00-4:00PM#VERY_LOW', '4:00-5:00PM#VERY_LOW', '6:00-7:00PM#VERY_LOW'],	8%

['TUESDAY', '12:00-1:00AM#LOW', '3:00-4:00AM#VERY_LOW'],	8%

['THURSDAY', '10:00-11:00PM#MED'],	8%

['WEDNESDAY', '3:00-4:00PM#VERY_HIGH', '5:00-6:00PM#VERY_HIGH', '6:00-7:00PM#VERY_HIGH'],	8%

['THURSDAY', '1:00-2:00AM#VERY_LOW', '2:00-3:00AM#VERY_LOW', '3:00-4:00AM#VERY_LOW'],	8%

['THURSDAY', '1:00-2:00AM#VERY_LOW', '2:00-3:00AM#VERY_LOW'],	8%

['FRIDAY', '3:00-4:00PM#VERY_LOW'],	8%

['FRIDAY', '3:00-4:00PM#VERY_LOW', '5:00-6:00PM#VERY_LOW', '6:00-7:00PM#VERY_LOW'],	8%

['THURSDAY', '12:00-1:00AM#LOW', '3:00-4:00AM#VERY_LOW'],	8%

['FRIDAY', '3:00-4:00PM#VERY_LOW', '4:00-5:00PM#VERY_LOW', '8:00-9:00PM#VERY_LOW'],	8%

['WEDNESDAY', '11:00-12:00AM#LOW'],	8%

['THURSDAY', '1:00-2:00AM#VERY_LOW', '3:00-4:00AM#VERY_LOW'],	8%

['WEDNESDAY', '12:00-1:00AM#LOW', '3:00-4:00AM#VERY_LOW'],	8%

['WEDNESDAY', '1:00-2:00AM#VERY_LOW'],	8%

['TUESDAY', '11:00-12:00AM#LOW'],	8%

['FRIDAY', '1:00-2:00PM#VERY_LOW', '4:00-5:00PM#VERY_LOW', '8:00-9:00PM#VERY_LOW'],	7%

['WEDNESDAY', '8:00-9:00AM#VERY_HIGH', '4:00-5:00PM#VERY_HIGH', '5:00-6:00PM#VERY_HIGH'],	7%

['TUESDAY', '3:00-4:00PM#VERY_HIGH', '4:00-5:00PM#VERY_HIGH', '5:00-6:00PM#VERY_HIGH', '6:00-7:00PM#VERY_HIGH'],	7%

['FRIDAY', '1:00-2:00PM#VERY_LOW', '4:00-5:00PM#VERY_LOW', '5:00-6:00PM#VERY_LOW', '6:00-7:00PM#VERY_LOW', '8:00-9:00PM#VERY_LOW'],	7%

['WEDNESDAY', '2:00-3:00PM#VERY_HIGH', '3:00-4:00PM#VERY_HIGH', '4:00-5:00PM#VERY_HIGH', '5:00-6:00PM#VERY_HIGH'],	7%

['TUESDAY', '3:00-4:00AM#VERY_LOW', '11:00-12:00AM#LOW'],	7%

['WEDNESDAY', '12:00-1:00AM#LOW', '2:00-3:00AM#VERY_LOW'],	7%

['WEDNESDAY', '8:00-9:00AM#VERY_HIGH', '3:00-4:00PM#VERY_HIGH'],	7%

['WEDNESDAY', '2:00-3:00PM#VERY_HIGH', '3:00-4:00PM#VERY_HIGH', '4:00-5:00PM#VERY_HIGH', '6:00-7:00PM#VERY_HIGH'],	7%

['TUESDAY', '3:00-4:00PM#VERY_HIGH', '4:00-5:00PM#VERY_HIGH', '6:00-7:00PM#VERY_HIGH'],	7%

['FRIDAY', '1:00-2:00PM#VERY_LOW', '6:00-7:00PM#VERY_LOW', '8:00-9:00PM#VERY_LOW'],	7%

['FRIDAY', '1:00-2:00PM#VERY_LOW', '3:00-4:00PM#VERY_LOW', '8:00-9:00PM#VERY_LOW'],	7%

['THURSDAY', '8:00-9:00AM#VERY_HIGH', '3:00-4:00PM#VERY_HIGH'],	7%

['WEDNESDAY', '1:00-2:00AM#VERY_LOW', '2:00-3:00AM#VERY_LOW', '3:00-4:00AM#VERY_LOW'],	7%

['WEDNESDAY', '12:00-1:00AM#LOW', '5:00-6:00AM#LOW'],	7%

['TUESDAY', '2:00-3:00PM#VERY_HIGH'],	7%

['TUESDAY', '5:00-6:00PM#VERY_HIGH', '6:00-7:00PM#VERY_HIGH'],	7%

['FRIDAY', '1:00-2:00PM#VERY_LOW', '4:00-5:00PM#VERY_LOW', '5:00-6:00PM#VERY_LOW'],	7%

['TUESDAY', '10:00-11:00PM#MED'],	7%

['TUESDAY', '2:00-3:00AM#VERY_LOW', '11:00-12:00AM#LOW'],	7%

['FRIDAY', '1:00-2:00PM#VERY_LOW', '3:00-4:00PM#VERY_LOW', '5:00-6:00PM#VERY_LOW', '6:00-7:00PM#VERY_LOW', '8:00-9:00PM#VERY_LOW'],	7%

['FRIDAY', '1:00-2:00PM#VERY_LOW', '3:00-4:00PM#VERY_LOW', '6:00-7:00PM#VERY_LOW', '8:00-9:00PM#VERY_LOW'],	7%

['FRIDAY', '1:00-2:00AM#VERY_LOW', '3:00-4:00AM#VERY_LOW'],	7%

['THURSDAY', '2:00-3:00PM#VERY_HIGH', '3:00-4:00PM#VERY_HIGH'],	7%

['FRIDAY', '1:00-2:00PM#VERY_LOW', '3:00-4:00PM#VERY_LOW'],	7%

['WEDNESDAY', '8:00-9:00AM#VERY_HIGH', '3:00-4:00PM#VERY_HIGH', '5:00-6:00PM#VERY_HIGH'],	7%

['FRIDAY', '1:00-2:00PM#VERY_LOW'],	7%

['THURSDAY', '3:00-4:00AM#VERY_LOW', '5:00-6:00AM#LOW'],	7%

['FRIDAY', '1:00-2:00PM#VERY_LOW', '3:00-4:00PM#VERY_LOW', '4:00-5:00PM#VERY_LOW', '5:00-6:00PM#VERY_LOW'],	7%

['WEDNESDAY', '2:00-3:00PM#VERY_HIGH', '3:00-4:00PM#VERY_HIGH', '5:00-6:00PM#VERY_HIGH', '6:00-7:00PM#VERY_HIGH'],	7%

['TUESDAY', '4:00-5:00PM#VERY_HIGH', '6:00-7:00PM#VERY_HIGH'],	7%

['WEDNESDAY', '2:00-3:00PM#VERY_HIGH', '4:00-5:00PM#VERY_HIGH'],	7%

['FRIDAY', '1:00-2:00PM#VERY_LOW', '5:00-6:00PM#VERY_LOW', '6:00-7:00PM#VERY_LOW'],	7%

['TUESDAY', '3:00-4:00PM#VERY_HIGH', '6:00-7:00PM#VERY_HIGH'],	7%

['WEDNESDAY', '2:00-3:00AM#VERY_LOW', '11:00-12:00AM#LOW'],	7%

['WEDNESDAY', '2:00-3:00PM#VERY_HIGH', '3:00-4:00PM#VERY_HIGH', '4:00-5:00PM#VERY_HIGH', '5:00-6:00PM#VERY_HIGH', '6:00-7:00PM#VERY_HIGH'],	7%

['THURSDAY', '2:00-3:00AM#LOW'],	7%

['WEDNESDAY', '1:00-2:00PM#HIGH'],	7%

['WEDNESDAY', '3:00-4:00AM#VERY_LOW', '11:00-12:00AM#LOW'],	7%

['FRIDAY', '1:00-2:00PM#VERY_LOW', '5:00-6:00PM#VERY_LOW'],	7%

['WEDNESDAY', '2:00-3:00PM#VERY_HIGH', '4:00-5:00PM#VERY_HIGH', '5:00-6:00PM#VERY_HIGH'],	7%

['FRIDAY', '1:00-2:00PM#VERY_LOW', '3:00-4:00PM#VERY_LOW', '5:00-6:00PM#VERY_LOW'],	7%

['FRIDAY', '1:00-2:00PM#VERY_LOW', '4:00-5:00PM#VERY_LOW', '5:00-6:00PM#VERY_LOW', '8:00-9:00PM#VERY_LOW'],	7%

['THURSDAY', '12:00-1:00AM#LOW', '2:00-3:00AM#VERY_LOW'],	7%

['TUESDAY', '2:00-3:00PM#VERY_HIGH', '3:00-4:00PM#VERY_HIGH'],	7%

['WEDNESDAY', '2:00-3:00PM#VERY_HIGH', '4:00-5:00PM#VERY_HIGH', '6:00-7:00PM#VERY_HIGH'],	7%

['FRIDAY', '1:00-2:00AM#VERY_LOW'],	7%

['WEDNESDAY', '2:00-3:00PM#VERY_HIGH', '3:00-4:00PM#VERY_HIGH', '4:00-5:00PM#VERY_HIGH'],	7%

['FRIDAY', '1:00-2:00PM#VERY_LOW', '4:00-5:00PM#VERY_LOW', '5:00-6:00PM#VERY_LOW', '6:00-7:00PM#VERY_LOW'],	7%

['TUESDAY', '6:00-7:00PM#VERY_HIGH'],	7%

['THURSDAY', '2:00-3:00AM#VERY_LOW', '11:00-12:00AM#LOW'],	7%

['THURSDAY', '2:00-3:00PM#VERY_HIGH'],	7%

['TUESDAY', '3:00-4:00AM#VERY_LOW', '5:00-6:00AM#LOW'],	7%

['TUESDAY', '8:00-9:00AM#VERY_HIGH', '3:00-4:00PM#VERY_HIGH'],	7%

['WEDNESDAY', '2:00-3:00PM#VERY_HIGH', '3:00-4:00PM#VERY_HIGH', '5:00-6:00PM#VERY_HIGH'],	7%

['WEDNESDAY', '2:00-3:00PM#VERY_HIGH', '3:00-4:00PM#VERY_HIGH'],	7%

['TUESDAY', '3:00-4:00PM#VERY_HIGH', '4:00-5:00PM#VERY_HIGH', '5:00-6:00PM#VERY_HIGH'],	7%

['WEDNESDAY', '3:00-4:00AM#VERY_LOW', '5:00-6:00AM#LOW'],	7%

['WEDNESDAY', '8:00-9:00AM#VERY_HIGH', '4:00-5:00PM#VERY_HIGH'],	7%

['TUESDAY', '3:00-4:00PM#VERY_HIGH', '5:00-6:00PM#VERY_HIGH', '6:00-7:00PM#VERY_HIGH'],	7%

['FRIDAY', '1:00-2:00PM#VERY_LOW', '5:00-6:00PM#VERY_LOW', '6:00-7:00PM#VERY_LOW', '8:00-9:00PM#VERY_LOW'],	7%

['FRIDAY', '1:00-2:00PM#VERY_LOW', '4:00-5:00PM#VERY_LOW', '6:00-7:00PM#VERY_LOW'],	7%

['THURSDAY', '12:00-1:00AM#LOW', '2:00-3:00AM#VERY_LOW', '3:00-4:00AM#VERY_LOW'],	7%

['FRIDAY', '1:00-2:00PM#VERY_LOW', '3:00-4:00PM#VERY_LOW', '4:00-5:00PM#VERY_LOW', '8:00-9:00PM#VERY_LOW'],	7%

['WEDNESDAY', '12:00-1:00AM#LOW', '10:00-11:00PM#MED'],	7%

['FRIDAY', '1:00-2:00PM#VERY_LOW', '3:00-4:00PM#VERY_LOW', '4:00-5:00PM#VERY_LOW', '6:00-7:00PM#VERY_LOW', '8:00-9:00PM#VERY_LOW'],	7%

['TUESDAY', '7:00-8:00AM#VERY_HIGH'],	7%

['WEDNESDAY', '2:00-3:00AM#VERY_LOW', '3:00-4:00AM#VERY_LOW', '11:00-12:00AM#LOW'],	7%

['FRIDAY', '1:00-2:00PM#VERY_LOW', '3:00-4:00PM#VERY_LOW', '5:00-6:00PM#VERY_LOW', '6:00-7:00PM#VERY_LOW'],	7%

['TUESDAY', '2:00-3:00AM#VERY_LOW', '3:00-4:00AM#VERY_LOW', '11:00-12:00AM#LOW'],	7%

['FRIDAY', '1:00-2:00PM#VERY_LOW', '8:00-9:00PM#VERY_LOW'],	7%

['FRIDAY', '1:00-2:00PM#VERY_LOW', '3:00-4:00PM#VERY_LOW', '6:00-7:00PM#VERY_LOW'],	7%

['WEDNESDAY', '2:00-3:00PM#VERY_HIGH'],	7%

['FRIDAY', '1:00-2:00PM#VERY_LOW', '6:00-7:00PM#VERY_LOW'],	7%

['FRIDAY', '1:00-2:00PM#VERY_LOW', '3:00-4:00PM#VERY_LOW', '4:00-5:00PM#VERY_LOW', '5:00-6:00PM#VERY_LOW', '6:00-7:00PM#VERY_LOW', '8:00-9:00PM#VERY_LOW'],	7%

['FRIDAY', '4:00-5:00AM#LOW'],	7%

['WEDNESDAY', '12:00-1:00AM#LOW', '2:00-3:00AM#VERY_LOW', '3:00-4:00AM#VERY_LOW'],	7%

['TUESDAY', '4:00-5:00PM#VERY_HIGH', '5:00-6:00PM#VERY_HIGH', '6:00-7:00PM#VERY_HIGH'],	7%

['THURSDAY', '2:00-3:00AM#VERY_LOW', '3:00-4:00AM#VERY_LOW', '11:00-12:00AM#LOW'],	7%

['WEDNESDAY', '2:00-3:00PM#VERY_HIGH', '5:00-6:00PM#VERY_HIGH', '6:00-7:00PM#VERY_HIGH'],	7%

['WEDNESDAY', '2:00-3:00PM#VERY_HIGH', '4:00-5:00PM#VERY_HIGH', '5:00-6:00PM#VERY_HIGH', '6:00-7:00PM#VERY_HIGH'],	7%

['FRIDAY', '2:00-3:00AM#LOW'],	7%

['TUESDAY', '8:00-9:00AM#VERY_HIGH', '5:00-6:00PM#VERY_HIGH'],	7%

['FRIDAY', '1:00-2:00PM#VERY_LOW', '3:00-4:00PM#VERY_LOW', '4:00-5:00PM#VERY_LOW', '5:00-6:00PM#VERY_LOW', '6:00-7:00PM#VERY_LOW'],	7%

['FRIDAY', '1:00-2:00PM#VERY_LOW', '5:00-6:00PM#VERY_LOW', '8:00-9:00PM#VERY_LOW'],	7%

['WEDNESDAY', '2:00-3:00PM#VERY_HIGH', '5:00-6:00PM#VERY_HIGH'],	7%

['FRIDAY', '1:00-2:00PM#VERY_LOW', '3:00-4:00PM#VERY_LOW', '4:00-5:00PM#VERY_LOW', '6:00-7:00PM#VERY_LOW'],	7%

['WEDNESDAY', '2:00-3:00PM#VERY_HIGH', '3:00-4:00PM#VERY_HIGH', '6:00-7:00PM#VERY_HIGH'],	7%

['THURSDAY', '2:00-3:00PM#VERY_HIGH', '6:00-7:00PM#VERY_HIGH'],	7%

['FRIDAY', '1:00-2:00PM#VERY_LOW', '4:00-5:00PM#VERY_LOW', '6:00-7:00PM#VERY_LOW', '8:00-9:00PM#VERY_LOW'],	7%

['WEDNESDAY', '4:00-5:00AM#LOW'],	7%

['FRIDAY', '1:00-2:00PM#VERY_LOW', '3:00-4:00PM#VERY_LOW', '5:00-6:00PM#VERY_LOW', '8:00-9:00PM#VERY_LOW'],	7%

['THURSDAY', '4:00-5:00AM#LOW'],	7%

['WEDNESDAY', '9:00-10:00PM#MED'],	7%

['TUESDAY', '9:00-10:00PM#MED'],	7%

['WEDNESDAY', '2:00-3:00PM#VERY_HIGH', '6:00-7:00PM#VERY_HIGH'],	7%

['TUESDAY', '12:00-1:00AM#LOW', '2:00-3:00AM#VERY_LOW'],	7%

['FRIDAY', '1:00-2:00AM#VERY_LOW', '2:00-3:00AM#VERY_LOW', '3:00-4:00AM#VERY_LOW'],	7%

['THURSDAY', '3:00-4:00AM#VERY_LOW', '11:00-12:00AM#LOW'],	7%

['WEDNESDAY', '8:00-9:00AM#VERY_HIGH', '5:00-6:00PM#VERY_HIGH'],	7%

['FRIDAY', '1:00-2:00PM#VERY_LOW', '4:00-5:00PM#VERY_LOW'],	7%

['THURSDAY', '12:00-1:00PM#HIGH'],	7%

['THURSDAY', '2:00-3:00PM#VERY_HIGH', '3:00-4:00PM#VERY_HIGH', '6:00-7:00PM#VERY_HIGH'],	7%

['WEDNESDAY', '8:00-9:00AM#VERY_HIGH', '3:00-4:00PM#VERY_HIGH', '4:00-5:00PM#VERY_HIGH'],	7%

['FRIDAY', '1:00-2:00AM#VERY_LOW', '2:00-3:00AM#VERY_LOW'],	7%

['FRIDAY', '1:00-2:00PM#VERY_LOW', '3:00-4:00PM#VERY_LOW', '4:00-5:00PM#VERY_LOW', '5:00-6:00PM#VERY_LOW', '8:00-9:00PM#VERY_LOW'],	7%

['FRIDAY', '1:00-2:00PM#VERY_LOW', '3:00-4:00PM#VERY_LOW', '4:00-5:00PM#VERY_LOW'],	7%

==High-confidence association rules (min_conf=80.0%)

['FRIDAY', '1:00-2:00PM#VERY_LOW', '4:00-5:00PM#VERY_LOW'] => 8:00-9:00PM#VERY_LOW,	(Conf: 100%, Supp: 7%)

['FRIDAY', '1:00-2:00PM#VERY_LOW', '5:00-6:00PM#VERY_LOW', '6:00-7:00PM#VERY_LOW', '8:00-9:00PM#VERY_LOW'] => 4:00-5:00PM#VERY_LOW,	(Conf: 100%, Supp: 7%)

['FRIDAY', '1:00-2:00PM#VERY_LOW', '4:00-5:00PM#VERY_LOW', '6:00-7:00PM#VERY_LOW', '8:00-9:00PM#VERY_LOW'] => 5:00-6:00PM#VERY_LOW,	(Conf: 100%, Supp: 7%)

['FRIDAY', '1:00-2:00PM#VERY_LOW', '4:00-5:00PM#VERY_LOW', '5:00-6:00PM#VERY_LOW', '8:00-9:00PM#VERY_LOW'] => 6:00-7:00PM#VERY_LOW,	(Conf: 100%, Supp: 7%)

['FRIDAY', '1:00-2:00PM#VERY_LOW', '4:00-5:00PM#VERY_LOW', '5:00-6:00PM#VERY_LOW', '6:00-7:00PM#VERY_LOW'] => 8:00-9:00PM#VERY_LOW,	(Conf: 100%, Supp: 7%)

['FRIDAY', '4:00-5:00PM#VERY_LOW', '6:00-7:00PM#VERY_LOW', '8:00-9:00PM#VERY_LOW'] => 5:00-6:00PM#VERY_LOW,	(Conf: 100%, Supp: 9%)

['FRIDAY', '4:00-5:00PM#VERY_LOW', '5:00-6:00PM#VERY_LOW', '8:00-9:00PM#VERY_LOW'] => 6:00-7:00PM#VERY_LOW,	(Conf: 100%, Supp: 9%)

['FRIDAY', '4:00-5:00PM#VERY_LOW', '5:00-6:00PM#VERY_LOW', '6:00-7:00PM#VERY_LOW'] => 8:00-9:00PM#VERY_LOW,	(Conf: 100%, Supp: 9%)

['FRIDAY', '4:00-5:00PM#VERY_LOW'] => 6:00-7:00PM#VERY_LOW,	(Conf: 100%, Supp: 9%)

['FRIDAY', '3:00-4:00PM#VERY_LOW', '5:00-6:00PM#VERY_LOW'] => 4:00-5:00PM#VERY_LOW,	(Conf: 100%, Supp: 8%)

['FRIDAY', '3:00-4:00PM#VERY_LOW', '4:00-5:00PM#VERY_LOW'] => 5:00-6:00PM#VERY_LOW,	(Conf: 100%, Supp: 8%)

['WEDNESDAY', '2:00-3:00PM#VERY_HIGH', '3:00-4:00PM#VERY_HIGH', '6:00-7:00PM#VERY_HIGH'] => 4:00-5:00PM#VERY_HIGH,	(Conf: 100%, Supp: 7%)

['FRIDAY', '1:00-2:00PM#VERY_LOW', '6:00-7:00PM#VERY_LOW'] => 8:00-9:00PM#VERY_LOW,	(Conf: 100%, Supp: 7%)

['FRIDAY', '4:00-5:00PM#VERY_LOW'] => 5:00-6:00PM#VERY_LOW,	(Conf: 100%, Supp: 9%)

['FRIDAY', '1:00-2:00PM#VERY_LOW', '3:00-4:00PM#VERY_LOW'] => 8:00-9:00PM#VERY_LOW,	(Conf: 100%, Supp: 7%)

['FRIDAY', '3:00-4:00PM#VERY_LOW', '6:00-7:00PM#VERY_LOW', '8:00-9:00PM#VERY_LOW'] => 4:00-5:00PM#VERY_LOW,	(Conf: 100%, Supp: 8%)

['FRIDAY', '3:00-4:00PM#VERY_LOW', '4:00-5:00PM#VERY_LOW', '8:00-9:00PM#VERY_LOW'] => 6:00-7:00PM#VERY_LOW,	(Conf: 100%, Supp: 8%)

['FRIDAY', '3:00-4:00PM#VERY_LOW', '4:00-5:00PM#VERY_LOW', '6:00-7:00PM#VERY_LOW'] => 8:00-9:00PM#VERY_LOW,	(Conf: 100%, Supp: 8%)

['FRIDAY', '1:00-2:00PM#VERY_LOW', '5:00-6:00PM#VERY_LOW'] => 4:00-5:00PM#VERY_LOW,	(Conf: 100%, Supp: 7%)

['FRIDAY', '1:00-2:00PM#VERY_LOW', '4:00-5:00PM#VERY_LOW'] => 5:00-6:00PM#VERY_LOW,	(Conf: 100%, Supp: 7%)

['FRIDAY', '3:00-4:00PM#VERY_LOW'] => 6:00-7:00PM#VERY_LOW,	(Conf: 100%, Supp: 8%)

['FRIDAY', '1:00-2:00PM#VERY_LOW', '3:00-4:00PM#VERY_LOW', '6:00-7:00PM#VERY_LOW', '8:00-9:00PM#VERY_LOW'] => 5:00-6:00PM#VERY_LOW,	(Conf: 100%, Supp: 7%)

['FRIDAY', '1:00-2:00PM#VERY_LOW', '3:00-4:00PM#VERY_LOW', '5:00-6:00PM#VERY_LOW', '8:00-9:00PM#VERY_LOW'] => 6:00-7:00PM#VERY_LOW,	(Conf: 100%, Supp: 7%)

['FRIDAY', '1:00-2:00PM#VERY_LOW', '3:00-4:00PM#VERY_LOW', '5:00-6:00PM#VERY_LOW', '6:00-7:00PM#VERY_LOW'] => 8:00-9:00PM#VERY_LOW,	(Conf: 100%, Supp: 7%)

['FRIDAY', '3:00-4:00PM#VERY_LOW', '5:00-6:00PM#VERY_LOW', '8:00-9:00PM#VERY_LOW'] => 4:00-5:00PM#VERY_LOW,	(Conf: 100%, Supp: 8%)

['FRIDAY', '3:00-4:00PM#VERY_LOW', '4:00-5:00PM#VERY_LOW', '8:00-9:00PM#VERY_LOW'] => 5:00-6:00PM#VERY_LOW,	(Conf: 100%, Supp: 8%)

['FRIDAY', '3:00-4:00PM#VERY_LOW', '4:00-5:00PM#VERY_LOW', '5:00-6:00PM#VERY_LOW'] => 8:00-9:00PM#VERY_LOW,	(Conf: 100%, Supp: 8%)

['FRIDAY', '4:00-5:00PM#VERY_LOW', '8:00-9:00PM#VERY_LOW'] => 6:00-7:00PM#VERY_LOW,	(Conf: 100%, Supp: 9%)

['FRIDAY', '4:00-5:00PM#VERY_LOW', '6:00-7:00PM#VERY_LOW'] => 8:00-9:00PM#VERY_LOW,	(Conf: 100%, Supp: 9%)

['FRIDAY', '3:00-4:00PM#VERY_LOW', '8:00-9:00PM#VERY_LOW'] => 5:00-6:00PM#VERY_LOW,	(Conf: 100%, Supp: 8%)

['FRIDAY', '3:00-4:00PM#VERY_LOW', '5:00-6:00PM#VERY_LOW'] => 8:00-9:00PM#VERY_LOW,	(Conf: 100%, Supp: 8%)

['FRIDAY', '1:00-2:00PM#VERY_LOW', '3:00-4:00PM#VERY_LOW', '8:00-9:00PM#VERY_LOW'] => 6:00-7:00PM#VERY_LOW,	(Conf: 100%, Supp: 7%)

['FRIDAY', '1:00-2:00PM#VERY_LOW', '3:00-4:00PM#VERY_LOW', '6:00-7:00PM#VERY_LOW'] => 8:00-9:00PM#VERY_LOW,	(Conf: 100%, Supp: 7%)

['FRIDAY', '5:00-6:00PM#VERY_LOW', '8:00-9:00PM#VERY_LOW'] => 6:00-7:00PM#VERY_LOW,	(Conf: 100%, Supp: 9%)

['FRIDAY', '5:00-6:00PM#VERY_LOW', '6:00-7:00PM#VERY_LOW'] => 8:00-9:00PM#VERY_LOW,	(Conf: 100%, Supp: 9%)

['FRIDAY', '4:00-5:00PM#VERY_LOW'] => 8:00-9:00PM#VERY_LOW,	(Conf: 100%, Supp: 9%)

['FRIDAY', '1:00-2:00PM#VERY_LOW', '3:00-4:00PM#VERY_LOW', '5:00-6:00PM#VERY_LOW'] => 4:00-5:00PM#VERY_LOW,	(Conf: 100%, Supp: 7%)

['FRIDAY', '1:00-2:00PM#VERY_LOW', '3:00-4:00PM#VERY_LOW', '4:00-5:00PM#VERY_LOW'] => 5:00-6:00PM#VERY_LOW,	(Conf: 100%, Supp: 7%)

['FRIDAY', '4:00-5:00PM#VERY_LOW', '6:00-7:00PM#VERY_LOW'] => 5:00-6:00PM#VERY_LOW,	(Conf: 100%, Supp: 9%)

['FRIDAY', '4:00-5:00PM#VERY_LOW', '5:00-6:00PM#VERY_LOW'] => 6:00-7:00PM#VERY_LOW,	(Conf: 100%, Supp: 9%)

['FRIDAY', '3:00-4:00PM#VERY_LOW', '5:00-6:00PM#VERY_LOW', '6:00-7:00PM#VERY_LOW', '8:00-9:00PM#VERY_LOW'] => 4:00-5:00PM#VERY_LOW,	(Conf: 100%, Supp: 8%)

['FRIDAY', '3:00-4:00PM#VERY_LOW', '4:00-5:00PM#VERY_LOW', '6:00-7:00PM#VERY_LOW', '8:00-9:00PM#VERY_LOW'] => 5:00-6:00PM#VERY_LOW,	(Conf: 100%, Supp: 8%)

['FRIDAY', '3:00-4:00PM#VERY_LOW', '4:00-5:00PM#VERY_LOW', '5:00-6:00PM#VERY_LOW', '8:00-9:00PM#VERY_LOW'] => 6:00-7:00PM#VERY_LOW,	(Conf: 100%, Supp: 8%)

['FRIDAY', '3:00-4:00PM#VERY_LOW', '4:00-5:00PM#VERY_LOW', '5:00-6:00PM#VERY_LOW', '6:00-7:00PM#VERY_LOW'] => 8:00-9:00PM#VERY_LOW,	(Conf: 100%, Supp: 8%)

['WEDNESDAY', '2:00-3:00PM#VERY_HIGH', '3:00-4:00PM#VERY_HIGH', '6:00-7:00PM#VERY_HIGH'] => 5:00-6:00PM#VERY_HIGH,	(Conf: 100%, Supp: 7%)

['FRIDAY', '1:00-2:00PM#VERY_LOW', '6:00-7:00PM#VERY_LOW'] => 5:00-6:00PM#VERY_LOW,	(Conf: 100%, Supp: 7%)

['FRIDAY', '1:00-2:00PM#VERY_LOW', '5:00-6:00PM#VERY_LOW'] => 6:00-7:00PM#VERY_LOW,	(Conf: 100%, Supp: 7%)

['WEDNESDAY', '2:00-3:00PM#VERY_HIGH', '3:00-4:00PM#VERY_HIGH', '5:00-6:00PM#VERY_HIGH', '6:00-7:00PM#VERY_HIGH'] => 4:00-5:00PM#VERY_HIGH,	(Conf: 100%, Supp: 7%)

['WEDNESDAY', '2:00-3:00PM#VERY_HIGH', '3:00-4:00PM#VERY_HIGH', '4:00-5:00PM#VERY_HIGH', '6:00-7:00PM#VERY_HIGH'] => 5:00-6:00PM#VERY_HIGH,	(Conf: 100%, Supp: 7%)

['FRIDAY', '3:00-4:00PM#VERY_LOW', '8:00-9:00PM#VERY_LOW'] => 6:00-7:00PM#VERY_LOW,	(Conf: 100%, Supp: 8%)

['FRIDAY', '3:00-4:00PM#VERY_LOW', '6:00-7:00PM#VERY_LOW'] => 8:00-9:00PM#VERY_LOW,	(Conf: 100%, Supp: 8%)

['FRIDAY', '1:00-2:00PM#VERY_LOW', '3:00-4:00PM#VERY_LOW'] => 5:00-6:00PM#VERY_LOW,	(Conf: 100%, Supp: 7%)

['FRIDAY', '1:00-2:00PM#VERY_LOW', '5:00-6:00PM#VERY_LOW', '8:00-9:00PM#VERY_LOW'] => 4:00-5:00PM#VERY_LOW,	(Conf: 100%, Supp: 7%)

['FRIDAY', '1:00-2:00PM#VERY_LOW', '4:00-5:00PM#VERY_LOW', '8:00-9:00PM#VERY_LOW'] => 5:00-6:00PM#VERY_LOW,	(Conf: 100%, Supp: 7%)

['FRIDAY', '1:00-2:00PM#VERY_LOW', '4:00-5:00PM#VERY_LOW', '5:00-6:00PM#VERY_LOW'] => 8:00-9:00PM#VERY_LOW,	(Conf: 100%, Supp: 7%)

['WEDNESDAY', '2:00-3:00PM#VERY_HIGH', '6:00-7:00PM#VERY_HIGH'] => 4:00-5:00PM#VERY_HIGH,	(Conf: 100%, Supp: 7%)

['FRIDAY', '3:00-4:00PM#VERY_LOW', '6:00-7:00PM#VERY_LOW', '8:00-9:00PM#VERY_LOW'] => 5:00-6:00PM#VERY_LOW,	(Conf: 100%, Supp: 8%)

['FRIDAY', '3:00-4:00PM#VERY_LOW', '5:00-6:00PM#VERY_LOW', '8:00-9:00PM#VERY_LOW'] => 6:00-7:00PM#VERY_LOW,	(Conf: 100%, Supp: 8%)

['FRIDAY', '3:00-4:00PM#VERY_LOW', '5:00-6:00PM#VERY_LOW', '6:00-7:00PM#VERY_LOW'] => 8:00-9:00PM#VERY_LOW,	(Conf: 100%, Supp: 8%)

['FRIDAY', '1:00-2:00PM#VERY_LOW', '5:00-6:00PM#VERY_LOW', '6:00-7:00PM#VERY_LOW'] => 4:00-5:00PM#VERY_LOW,	(Conf: 100%, Supp: 7%)

['FRIDAY', '1:00-2:00PM#VERY_LOW', '4:00-5:00PM#VERY_LOW', '6:00-7:00PM#VERY_LOW'] => 5:00-6:00PM#VERY_LOW,	(Conf: 100%, Supp: 7%)

['FRIDAY', '1:00-2:00PM#VERY_LOW', '4:00-5:00PM#VERY_LOW', '5:00-6:00PM#VERY_LOW'] => 6:00-7:00PM#VERY_LOW,	(Conf: 100%, Supp: 7%)

['FRIDAY', '3:00-4:00PM#VERY_LOW'] => 5:00-6:00PM#VERY_LOW,	(Conf: 100%, Supp: 8%)

['FRIDAY', '1:00-2:00PM#VERY_LOW', '6:00-7:00PM#VERY_LOW', '8:00-9:00PM#VERY_LOW'] => 5:00-6:00PM#VERY_LOW,	(Conf: 100%, Supp: 7%)

['FRIDAY', '1:00-2:00PM#VERY_LOW', '5:00-6:00PM#VERY_LOW', '8:00-9:00PM#VERY_LOW'] => 6:00-7:00PM#VERY_LOW,	(Conf: 100%, Supp: 7%)

['FRIDAY', '1:00-2:00PM#VERY_LOW', '5:00-6:00PM#VERY_LOW', '6:00-7:00PM#VERY_LOW'] => 8:00-9:00PM#VERY_LOW,	(Conf: 100%, Supp: 7%)

['FRIDAY', '1:00-2:00PM#VERY_LOW', '6:00-7:00PM#VERY_LOW'] => 4:00-5:00PM#VERY_LOW,	(Conf: 100%, Supp: 7%)

['FRIDAY', '1:00-2:00PM#VERY_LOW', '4:00-5:00PM#VERY_LOW'] => 6:00-7:00PM#VERY_LOW,	(Conf: 100%, Supp: 7%)

['FRIDAY', '1:00-2:00PM#VERY_LOW', '3:00-4:00PM#VERY_LOW', '8:00-9:00PM#VERY_LOW'] => 4:00-5:00PM#VERY_LOW,	(Conf: 100%, Supp: 7%)

['FRIDAY', '1:00-2:00PM#VERY_LOW', '3:00-4:00PM#VERY_LOW', '4:00-5:00PM#VERY_LOW'] => 8:00-9:00PM#VERY_LOW,	(Conf: 100%, Supp: 7%)

['FRIDAY', '1:00-2:00PM#VERY_LOW', '3:00-4:00PM#VERY_LOW', '6:00-7:00PM#VERY_LOW', '8:00-9:00PM#VERY_LOW'] => 4:00-5:00PM#VERY_LOW,	(Conf: 100%, Supp: 7%)

['FRIDAY', '1:00-2:00PM#VERY_LOW', '3:00-4:00PM#VERY_LOW', '4:00-5:00PM#VERY_LOW', '8:00-9:00PM#VERY_LOW'] => 6:00-7:00PM#VERY_LOW,	(Conf: 100%, Supp: 7%)

['FRIDAY', '1:00-2:00PM#VERY_LOW', '3:00-4:00PM#VERY_LOW', '4:00-5:00PM#VERY_LOW', '6:00-7:00PM#VERY_LOW'] => 8:00-9:00PM#VERY_LOW,	(Conf: 100%, Supp: 7%)

['FRIDAY', '5:00-6:00PM#VERY_LOW'] => 6:00-7:00PM#VERY_LOW,	(Conf: 100%, Supp: 9%)

['FRIDAY', '3:00-4:00PM#VERY_LOW'] => 4:00-5:00PM#VERY_LOW,	(Conf: 100%, Supp: 8%)

['FRIDAY', '1:00-2:00PM#VERY_LOW', '3:00-4:00PM#VERY_LOW', '6:00-7:00PM#VERY_LOW'] => 5:00-6:00PM#VERY_LOW,	(Conf: 100%, Supp: 7%)

['FRIDAY', '1:00-2:00PM#VERY_LOW', '3:00-4:00PM#VERY_LOW', '5:00-6:00PM#VERY_LOW'] => 6:00-7:00PM#VERY_LOW,	(Conf: 100%, Supp: 7%)

['FRIDAY', '3:00-4:00PM#VERY_LOW'] => 8:00-9:00PM#VERY_LOW,	(Conf: 100%, Supp: 8%)

['FRIDAY', '1:00-2:00PM#VERY_LOW', '3:00-4:00PM#VERY_LOW'] => 6:00-7:00PM#VERY_LOW,	(Conf: 100%, Supp: 7%)

['FRIDAY', '3:00-4:00PM#VERY_LOW', '5:00-6:00PM#VERY_LOW', '6:00-7:00PM#VERY_LOW'] => 4:00-5:00PM#VERY_LOW,	(Conf: 100%, Supp: 8%)

['FRIDAY', '3:00-4:00PM#VERY_LOW', '4:00-5:00PM#VERY_LOW', '6:00-7:00PM#VERY_LOW'] => 5:00-6:00PM#VERY_LOW,	(Conf: 100%, Supp: 8%)

['FRIDAY', '3:00-4:00PM#VERY_LOW', '4:00-5:00PM#VERY_LOW', '5:00-6:00PM#VERY_LOW'] => 6:00-7:00PM#VERY_LOW,	(Conf: 100%, Supp: 8%)

['FRIDAY', '1:00-2:00PM#VERY_LOW', '3:00-4:00PM#VERY_LOW', '5:00-6:00PM#VERY_LOW', '6:00-7:00PM#VERY_LOW', '8:00-9:00PM#VERY_LOW'] => 4:00-5:00PM#VERY_LOW,	(Conf: 100%, Supp: 7%)

['FRIDAY', '1:00-2:00PM#VERY_LOW', '3:00-4:00PM#VERY_LOW', '4:00-5:00PM#VERY_LOW', '6:00-7:00PM#VERY_LOW', '8:00-9:00PM#VERY_LOW'] => 5:00-6:00PM#VERY_LOW,	(Conf: 100%, Supp: 7%)

['FRIDAY', '1:00-2:00PM#VERY_LOW', '3:00-4:00PM#VERY_LOW', '4:00-5:00PM#VERY_LOW', '5:00-6:00PM#VERY_LOW', '8:00-9:00PM#VERY_LOW'] => 6:00-7:00PM#VERY_LOW,	(Conf: 100%, Supp: 7%)

['FRIDAY', '1:00-2:00PM#VERY_LOW', '3:00-4:00PM#VERY_LOW', '4:00-5:00PM#VERY_LOW', '5:00-6:00PM#VERY_LOW', '6:00-7:00PM#VERY_LOW'] => 8:00-9:00PM#VERY_LOW,	(Conf: 100%, Supp: 7%)

['FRIDAY', '3:00-4:00PM#VERY_LOW', '6:00-7:00PM#VERY_LOW'] => 4:00-5:00PM#VERY_LOW,	(Conf: 100%, Supp: 8%)

['FRIDAY', '3:00-4:00PM#VERY_LOW', '4:00-5:00PM#VERY_LOW'] => 6:00-7:00PM#VERY_LOW,	(Conf: 100%, Supp: 8%)

['WEDNESDAY', '2:00-3:00PM#VERY_HIGH', '6:00-7:00PM#VERY_HIGH'] => 5:00-6:00PM#VERY_HIGH,	(Conf: 100%, Supp: 7%)

['WEDNESDAY', '2:00-3:00PM#VERY_HIGH', '5:00-6:00PM#VERY_HIGH', '6:00-7:00PM#VERY_HIGH'] => 4:00-5:00PM#VERY_HIGH,	(Conf: 100%, Supp: 7%)

['WEDNESDAY', '2:00-3:00PM#VERY_HIGH', '4:00-5:00PM#VERY_HIGH', '6:00-7:00PM#VERY_HIGH'] => 5:00-6:00PM#VERY_HIGH,	(Conf: 100%, Supp: 7%)

['FRIDAY', '1:00-2:00PM#VERY_LOW', '3:00-4:00PM#VERY_LOW', '5:00-6:00PM#VERY_LOW', '6:00-7:00PM#VERY_LOW'] => 4:00-5:00PM#VERY_LOW,	(Conf: 100%, Supp: 7%)

['FRIDAY', '1:00-2:00PM#VERY_LOW', '3:00-4:00PM#VERY_LOW', '4:00-5:00PM#VERY_LOW', '6:00-7:00PM#VERY_LOW'] => 5:00-6:00PM#VERY_LOW,	(Conf: 100%, Supp: 7%)

['FRIDAY', '1:00-2:00PM#VERY_LOW', '3:00-4:00PM#VERY_LOW', '4:00-5:00PM#VERY_LOW', '5:00-6:00PM#VERY_LOW'] => 6:00-7:00PM#VERY_LOW,	(Conf: 100%, Supp: 7%)

['FRIDAY', '1:00-2:00PM#VERY_LOW', '5:00-6:00PM#VERY_LOW'] => 8:00-9:00PM#VERY_LOW,	(Conf: 100%, Supp: 7%)

['FRIDAY', '1:00-2:00PM#VERY_LOW', '3:00-4:00PM#VERY_LOW', '6:00-7:00PM#VERY_LOW'] => 4:00-5:00PM#VERY_LOW,	(Conf: 100%, Supp: 7%)

['FRIDAY', '1:00-2:00PM#VERY_LOW', '3:00-4:00PM#VERY_LOW', '4:00-5:00PM#VERY_LOW'] => 6:00-7:00PM#VERY_LOW,	(Conf: 100%, Supp: 7%)

['FRIDAY', '1:00-2:00PM#VERY_LOW', '6:00-7:00PM#VERY_LOW', '8:00-9:00PM#VERY_LOW'] => 4:00-5:00PM#VERY_LOW,	(Conf: 100%, Supp: 7%)

['FRIDAY', '1:00-2:00PM#VERY_LOW', '4:00-5:00PM#VERY_LOW', '8:00-9:00PM#VERY_LOW'] => 6:00-7:00PM#VERY_LOW,	(Conf: 100%, Supp: 7%)

['FRIDAY', '1:00-2:00PM#VERY_LOW', '4:00-5:00PM#VERY_LOW', '6:00-7:00PM#VERY_LOW'] => 8:00-9:00PM#VERY_LOW,	(Conf: 100%, Supp: 7%)

['FRIDAY', '6:00-7:00PM#VERY_LOW'] => 8:00-9:00PM#VERY_LOW,	(Conf: 100%, Supp: 9%)

['THURSDAY', '1:00-2:00AM#VERY_LOW', '2:00-3:00AM#VERY_LOW'] => 3:00-4:00AM#VERY_LOW,	(Conf: 100%, Supp: 8%)

['FRIDAY', '1:00-2:00PM#VERY_LOW', '3:00-4:00PM#VERY_LOW', '8:00-9:00PM#VERY_LOW'] => 5:00-6:00PM#VERY_LOW,	(Conf: 100%, Supp: 7%)

['FRIDAY', '1:00-2:00PM#VERY_LOW', '3:00-4:00PM#VERY_LOW', '5:00-6:00PM#VERY_LOW'] => 8:00-9:00PM#VERY_LOW,	(Conf: 100%, Supp: 7%)

['FRIDAY', '5:00-6:00PM#VERY_LOW'] => 8:00-9:00PM#VERY_LOW,	(Conf: 100%, Supp: 9%)

['FRIDAY', '3:00-4:00PM#VERY_LOW', '6:00-7:00PM#VERY_LOW'] => 5:00-6:00PM#VERY_LOW,	(Conf: 100%, Supp: 8%)

['FRIDAY', '3:00-4:00PM#VERY_LOW', '5:00-6:00PM#VERY_LOW'] => 6:00-7:00PM#VERY_LOW,	(Conf: 100%, Supp: 8%)

['FRIDAY', '3:00-4:00PM#VERY_LOW', '8:00-9:00PM#VERY_LOW'] => 4:00-5:00PM#VERY_LOW,	(Conf: 100%, Supp: 8%)

['FRIDAY', '3:00-4:00PM#VERY_LOW', '4:00-5:00PM#VERY_LOW'] => 8:00-9:00PM#VERY_LOW,	(Conf: 100%, Supp: 8%)

['THURSDAY', '2:00-3:00PM#VERY_HIGH', '6:00-7:00PM#VERY_HIGH'] => 3:00-4:00PM#VERY_HIGH,	(Conf: 100%, Supp: 7%)

['FRIDAY', '4:00-5:00PM#VERY_LOW', '8:00-9:00PM#VERY_LOW'] => 5:00-6:00PM#VERY_LOW,	(Conf: 100%, Supp: 9%)

['FRIDAY', '4:00-5:00PM#VERY_LOW', '5:00-6:00PM#VERY_LOW'] => 8:00-9:00PM#VERY_LOW,	(Conf: 100%, Supp: 9%)

['FRIDAY', '1:00-2:00PM#VERY_LOW', '3:00-4:00PM#VERY_LOW', '5:00-6:00PM#VERY_LOW', '8:00-9:00PM#VERY_LOW'] => 4:00-5:00PM#VERY_LOW,	(Conf: 100%, Supp: 7%)

['FRIDAY', '1:00-2:00PM#VERY_LOW', '3:00-4:00PM#VERY_LOW', '4:00-5:00PM#VERY_LOW', '8:00-9:00PM#VERY_LOW'] => 5:00-6:00PM#VERY_LOW,	(Conf: 100%, Supp: 7%)

['FRIDAY', '1:00-2:00PM#VERY_LOW', '3:00-4:00PM#VERY_LOW', '4:00-5:00PM#VERY_LOW', '5:00-6:00PM#VERY_LOW'] => 8:00-9:00PM#VERY_LOW,	(Conf: 100%, Supp: 7%)

['FRIDAY', '1:00-2:00PM#VERY_LOW', '3:00-4:00PM#VERY_LOW'] => 4:00-5:00PM#VERY_LOW,	(Conf: 100%, Supp: 7%)

['FRIDAY', '1:00-2:00PM#VERY_LOW', '8:00-9:00PM#VERY_LOW'] => 4:00-5:00PM#VERY_LOW,	(Conf: 99%, Supp: 7%)

['TUESDAY', '3:00-4:00PM#VERY_HIGH', '4:00-5:00PM#VERY_HIGH', '6:00-7:00PM#VERY_HIGH'] => 5:00-6:00PM#VERY_HIGH,	(Conf: 99%, Supp: 7%)

['WEDNESDAY', '2:00-3:00PM#VERY_HIGH', '3:00-4:00PM#VERY_HIGH', '5:00-6:00PM#VERY_HIGH'] => 4:00-5:00PM#VERY_HIGH,	(Conf: 99%, Supp: 7%)

['WEDNESDAY', '3:00-4:00PM#VERY_HIGH', '6:00-7:00PM#VERY_HIGH'] => 4:00-5:00PM#VERY_HIGH,	(Conf: 99%, Supp: 8%)

['FRIDAY', '5:00-6:00PM#VERY_LOW', '6:00-7:00PM#VERY_LOW', '8:00-9:00PM#VERY_LOW'] => 4:00-5:00PM#VERY_LOW,	(Conf: 99%, Supp: 9%)

['FRIDAY', '1:00-2:00PM#VERY_LOW', '8:00-9:00PM#VERY_LOW'] => 6:00-7:00PM#VERY_LOW,	(Conf: 99%, Supp: 7%)

['FRIDAY', '5:00-6:00PM#VERY_LOW'] => 4:00-5:00PM#VERY_LOW,	(Conf: 99%, Supp: 9%)

['WEDNESDAY', '1:00-2:00AM#VERY_LOW', '3:00-4:00AM#VERY_LOW'] => 2:00-3:00AM#VERY_LOW,	(Conf: 99%, Supp: 7%)

['WEDNESDAY', '1:00-2:00AM#VERY_LOW', '2:00-3:00AM#VERY_LOW'] => 3:00-4:00AM#VERY_LOW,	(Conf: 99%, Supp: 7%)

['FRIDAY', '1:00-2:00PM#VERY_LOW', '5:00-6:00PM#VERY_LOW', '6:00-7:00PM#VERY_LOW', '8:00-9:00PM#VERY_LOW'] => 3:00-4:00PM#VERY_LOW,	(Conf: 99%, Supp: 7%)

['FRIDAY', '1:00-2:00PM#VERY_LOW', '6:00-7:00PM#VERY_LOW', '8:00-9:00PM#VERY_LOW'] => 3:00-4:00PM#VERY_LOW,	(Conf: 99%, Supp: 7%)

['FRIDAY', '1:00-2:00PM#VERY_LOW', '4:00-5:00PM#VERY_LOW', '5:00-6:00PM#VERY_LOW'] => 3:00-4:00PM#VERY_LOW,	(Conf: 99%, Supp: 7%)

['FRIDAY', '5:00-6:00PM#VERY_LOW', '6:00-7:00PM#VERY_LOW'] => 4:00-5:00PM#VERY_LOW,	(Conf: 99%, Supp: 9%)

['FRIDAY', '1:00-2:00PM#VERY_LOW', '5:00-6:00PM#VERY_LOW'] => 3:00-4:00PM#VERY_LOW,	(Conf: 99%, Supp: 7%)

['TUESDAY', '2:00-3:00PM#VERY_HIGH'] => 3:00-4:00PM#VERY_HIGH,	(Conf: 99%, Supp: 7%)

['FRIDAY', '1:00-2:00PM#VERY_LOW', '4:00-5:00PM#VERY_LOW', '8:00-9:00PM#VERY_LOW'] => 3:00-4:00PM#VERY_LOW,	(Conf: 99%, Supp: 7%)

['FRIDAY', '1:00-2:00PM#VERY_LOW', '4:00-5:00PM#VERY_LOW', '6:00-7:00PM#VERY_LOW', '8:00-9:00PM#VERY_LOW'] => 3:00-4:00PM#VERY_LOW,	(Conf: 99%, Supp: 7%)

['WEDNESDAY', '3:00-4:00PM#VERY_HIGH', '5:00-6:00PM#VERY_HIGH', '6:00-7:00PM#VERY_HIGH'] => 4:00-5:00PM#VERY_HIGH,	(Conf: 99%, Supp: 8%)

['WEDNESDAY', '3:00-4:00PM#VERY_HIGH', '4:00-5:00PM#VERY_HIGH', '6:00-7:00PM#VERY_HIGH'] => 5:00-6:00PM#VERY_HIGH,	(Conf: 99%, Supp: 8%)

['FRIDAY', '1:00-2:00PM#VERY_LOW', '5:00-6:00PM#VERY_LOW', '6:00-7:00PM#VERY_LOW'] => 3:00-4:00PM#VERY_LOW,	(Conf: 99%, Supp: 7%)

['FRIDAY', '1:00-2:00PM#VERY_LOW'] => 8:00-9:00PM#VERY_LOW,	(Conf: 99%, Supp: 7%)

['FRIDAY', '1:00-2:00PM#VERY_LOW', '6:00-7:00PM#VERY_LOW'] => 3:00-4:00PM#VERY_LOW,	(Conf: 99%, Supp: 7%)

['WEDNESDAY', '4:00-5:00PM#VERY_HIGH', '6:00-7:00PM#VERY_HIGH'] => 5:00-6:00PM#VERY_HIGH,	(Conf: 99%, Supp: 8%)

['FRIDAY', '1:00-2:00PM#VERY_LOW', '4:00-5:00PM#VERY_LOW', '5:00-6:00PM#VERY_LOW', '6:00-7:00PM#VERY_LOW', '8:00-9:00PM#VERY_LOW'] => 3:00-4:00PM#VERY_LOW,	(Conf: 99%, Supp: 7%)

['TUESDAY', '1:00-2:00AM#VERY_LOW', '2:00-3:00AM#VERY_LOW'] => 3:00-4:00AM#VERY_LOW,	(Conf: 99%, Supp: 8%)

['TUESDAY', '4:00-5:00PM#VERY_HIGH', '6:00-7:00PM#VERY_HIGH'] => 5:00-6:00PM#VERY_HIGH,	(Conf: 99%, Supp: 7%)

['FRIDAY', '1:00-2:00PM#VERY_LOW', '4:00-5:00PM#VERY_LOW', '5:00-6:00PM#VERY_LOW', '6:00-7:00PM#VERY_LOW'] => 3:00-4:00PM#VERY_LOW,	(Conf: 99%, Supp: 7%)

['FRIDAY', '1:00-2:00PM#VERY_LOW', '8:00-9:00PM#VERY_LOW'] => 5:00-6:00PM#VERY_LOW,	(Conf: 99%, Supp: 7%)

['FRIDAY', '1:00-2:00PM#VERY_LOW', '4:00-5:00PM#VERY_LOW', '6:00-7:00PM#VERY_LOW'] => 3:00-4:00PM#VERY_LOW,	(Conf: 99%, Supp: 7%)

['WEDNESDAY', '3:00-4:00PM#VERY_HIGH', '6:00-7:00PM#VERY_HIGH'] => 5:00-6:00PM#VERY_HIGH,	(Conf: 99%, Supp: 8%)

['THURSDAY', '1:00-2:00AM#VERY_LOW', '3:00-4:00AM#VERY_LOW'] => 2:00-3:00AM#VERY_LOW,	(Conf: 99%, Supp: 8%)

['FRIDAY', '1:00-2:00PM#VERY_LOW', '5:00-6:00PM#VERY_LOW', '8:00-9:00PM#VERY_LOW'] => 3:00-4:00PM#VERY_LOW,	(Conf: 99%, Supp: 7%)

['THURSDAY', '1:00-2:00AM#VERY_LOW'] => 3:00-4:00AM#VERY_LOW,	(Conf: 99%, Supp: 8%)

['FRIDAY', '5:00-6:00PM#VERY_LOW', '8:00-9:00PM#VERY_LOW'] => 4:00-5:00PM#VERY_LOW,	(Conf: 99%, Supp: 9%)

['FRIDAY', '1:00-2:00PM#VERY_LOW', '4:00-5:00PM#VERY_LOW', '5:00-6:00PM#VERY_LOW', '8:00-9:00PM#VERY_LOW'] => 3:00-4:00PM#VERY_LOW,	(Conf: 99%, Supp: 7%)

['FRIDAY', '1:00-2:00PM#VERY_LOW', '4:00-5:00PM#VERY_LOW'] => 3:00-4:00PM#VERY_LOW,	(Conf: 99%, Supp: 7%)

['TUESDAY', '3:00-4:00PM#VERY_HIGH', '5:00-6:00PM#VERY_HIGH', '6:00-7:00PM#VERY_HIGH'] => 4:00-5:00PM#VERY_HIGH,	(Conf: 98%, Supp: 7%)

['WEDNESDAY', '2:00-3:00PM#VERY_HIGH', '4:00-5:00PM#VERY_HIGH', '5:00-6:00PM#VERY_HIGH'] => 3:00-4:00PM#VERY_HIGH,	(Conf: 98%, Supp: 7%)

['WEDNESDAY', '2:00-3:00PM#VERY_HIGH', '3:00-4:00PM#VERY_HIGH', '4:00-5:00PM#VERY_HIGH'] => 5:00-6:00PM#VERY_HIGH,	(Conf: 98%, Supp: 7%)

['WEDNESDAY', '2:00-3:00PM#VERY_HIGH', '4:00-5:00PM#VERY_HIGH', '6:00-7:00PM#VERY_HIGH'] => 3:00-4:00PM#VERY_HIGH,	(Conf: 98%, Supp: 7%)

['TUESDAY', '3:00-4:00PM#VERY_HIGH', '6:00-7:00PM#VERY_HIGH'] => 4:00-5:00PM#VERY_HIGH,	(Conf: 98%, Supp: 7%)

['FRIDAY', '1:00-2:00PM#VERY_LOW', '8:00-9:00PM#VERY_LOW'] => 3:00-4:00PM#VERY_LOW,	(Conf: 98%, Supp: 7%)

['FRIDAY', '1:00-2:00AM#VERY_LOW'] => 3:00-4:00AM#VERY_LOW,	(Conf: 98%, Supp: 7%)

['FRIDAY', '1:00-2:00PM#VERY_LOW'] => 3:00-4:00PM#VERY_LOW,	(Conf: 98%, Supp: 7%)

['WEDNESDAY', '2:00-3:00PM#VERY_HIGH', '5:00-6:00PM#VERY_HIGH', '6:00-7:00PM#VERY_HIGH'] => 3:00-4:00PM#VERY_HIGH,	(Conf: 98%, Supp: 7%)

['WEDNESDAY', '2:00-3:00PM#VERY_HIGH'] => 4:00-5:00PM#VERY_HIGH,	(Conf: 98%, Supp: 7%)

['WEDNESDAY', '2:00-3:00PM#VERY_HIGH', '4:00-5:00PM#VERY_HIGH', '5:00-6:00PM#VERY_HIGH', '6:00-7:00PM#VERY_HIGH'] => 3:00-4:00PM#VERY_HIGH,	(Conf: 98%, Supp: 7%)

['WEDNESDAY', '6:00-7:00PM#VERY_HIGH'] => 5:00-6:00PM#VERY_HIGH,	(Conf: 98%, Supp: 8%)

['FRIDAY', '1:00-2:00PM#VERY_LOW'] => 5:00-6:00PM#VERY_LOW,	(Conf: 98%, Supp: 7%)

['WEDNESDAY', '2:00-3:00PM#VERY_HIGH', '5:00-6:00PM#VERY_HIGH'] => 4:00-5:00PM#VERY_HIGH,	(Conf: 98%, Supp: 7%)

['WEDNESDAY', '2:00-3:00PM#VERY_HIGH', '4:00-5:00PM#VERY_HIGH'] => 5:00-6:00PM#VERY_HIGH,	(Conf: 98%, Supp: 7%)

['WEDNESDAY', '2:00-3:00PM#VERY_HIGH', '4:00-5:00PM#VERY_HIGH'] => 3:00-4:00PM#VERY_HIGH,	(Conf: 98%, Supp: 7%)

['WEDNESDAY', '2:00-3:00PM#VERY_HIGH', '3:00-4:00PM#VERY_HIGH'] => 4:00-5:00PM#VERY_HIGH,	(Conf: 98%, Supp: 7%)

['WEDNESDAY', '2:00-3:00PM#VERY_HIGH', '5:00-6:00PM#VERY_HIGH'] => 3:00-4:00PM#VERY_HIGH,	(Conf: 98%, Supp: 7%)

['WEDNESDAY', '2:00-3:00PM#VERY_HIGH', '3:00-4:00PM#VERY_HIGH'] => 5:00-6:00PM#VERY_HIGH,	(Conf: 98%, Supp: 7%)

['TUESDAY', '3:00-4:00PM#VERY_HIGH', '4:00-5:00PM#VERY_HIGH'] => 5:00-6:00PM#VERY_HIGH,	(Conf: 98%, Supp: 7%)

['TUESDAY', '3:00-4:00PM#VERY_HIGH', '6:00-7:00PM#VERY_HIGH'] => 5:00-6:00PM#VERY_HIGH,	(Conf: 98%, Supp: 7%)

['TUESDAY', '2:00-3:00AM#VERY_LOW', '11:00-12:00AM#LOW'] => 3:00-4:00AM#VERY_LOW,	(Conf: 98%, Supp: 7%)

['WEDNESDAY', '5:00-6:00PM#VERY_HIGH', '6:00-7:00PM#VERY_HIGH'] => 4:00-5:00PM#VERY_HIGH,	(Conf: 98%, Supp: 8%)

['FRIDAY', '1:00-2:00PM#VERY_LOW'] => 6:00-7:00PM#VERY_LOW,	(Conf: 98%, Supp: 7%)

['WEDNESDAY', '2:00-3:00PM#VERY_HIGH', '6:00-7:00PM#VERY_HIGH'] => 3:00-4:00PM#VERY_HIGH,	(Conf: 98%, Supp: 7%)

['THURSDAY', '1:00-2:00AM#VERY_LOW'] => 2:00-3:00AM#VERY_LOW,	(Conf: 98%, Supp: 8%)

['FRIDAY', '1:00-2:00AM#VERY_LOW', '3:00-4:00AM#VERY_LOW'] => 2:00-3:00AM#VERY_LOW,	(Conf: 98%, Supp: 7%)

['FRIDAY', '1:00-2:00AM#VERY_LOW', '2:00-3:00AM#VERY_LOW'] => 3:00-4:00AM#VERY_LOW,	(Conf: 98%, Supp: 7%)

['FRIDAY', '1:00-2:00PM#VERY_LOW'] => 4:00-5:00PM#VERY_LOW,	(Conf: 98%, Supp: 7%)

['FRIDAY', '1:00-2:00AM#VERY_LOW'] => 2:00-3:00AM#VERY_LOW,	(Conf: 98%, Supp: 7%)

['WEDNESDAY', '4:00-5:00PM#VERY_HIGH', '6:00-7:00PM#VERY_HIGH'] => 3:00-4:00PM#VERY_HIGH,	(Conf: 97%, Supp: 8%)

['FRIDAY', '6:00-7:00PM#VERY_LOW'] => 4:00-5:00PM#VERY_LOW,	(Conf: 97%, Supp: 9%)

['TUESDAY', '1:00-2:00AM#VERY_LOW'] => 3:00-4:00AM#VERY_LOW,	(Conf: 97%, Supp: 8%)

['TUESDAY', '6:00-7:00PM#VERY_HIGH'] => 5:00-6:00PM#VERY_HIGH,	(Conf: 97%, Supp: 7%)

['WEDNESDAY', '3:00-4:00PM#VERY_HIGH', '5:00-6:00PM#VERY_HIGH'] => 4:00-5:00PM#VERY_HIGH,	(Conf: 97%, Supp: 8%)

['FRIDAY', '6:00-7:00PM#VERY_LOW', '8:00-9:00PM#VERY_LOW'] => 4:00-5:00PM#VERY_LOW,	(Conf: 97%, Supp: 9%)

['FRIDAY', '6:00-7:00PM#VERY_LOW', '8:00-9:00PM#VERY_LOW'] => 5:00-6:00PM#VERY_LOW,	(Conf: 97%, Supp: 9%)

['WEDNESDAY', '6:00-7:00PM#VERY_HIGH'] => 4:00-5:00PM#VERY_HIGH,	(Conf: 97%, Supp: 8%)

['TUESDAY', '4:00-5:00PM#VERY_HIGH'] => 5:00-6:00PM#VERY_HIGH,	(Conf: 97%, Supp: 8%)

['WEDNESDAY', '2:00-3:00PM#VERY_HIGH'] => 3:00-4:00PM#VERY_HIGH,	(Conf: 97%, Supp: 7%)

['WEDNESDAY', '1:00-2:00AM#VERY_LOW'] => 3:00-4:00AM#VERY_LOW,	(Conf: 97%, Supp: 8%)

['FRIDAY', '6:00-7:00PM#VERY_LOW'] => 5:00-6:00PM#VERY_LOW,	(Conf: 97%, Supp: 9%)

['WEDNESDAY', '1:00-2:00AM#VERY_LOW'] => 2:00-3:00AM#VERY_LOW,	(Conf: 97%, Supp: 8%)

['WEDNESDAY', '4:00-5:00PM#VERY_HIGH', '5:00-6:00PM#VERY_HIGH', '6:00-7:00PM#VERY_HIGH'] => 3:00-4:00PM#VERY_HIGH,	(Conf: 97%, Supp: 8%)

['TUESDAY', '1:00-2:00AM#VERY_LOW', '3:00-4:00AM#VERY_LOW'] => 2:00-3:00AM#VERY_LOW,	(Conf: 97%, Supp: 8%)

['TUESDAY', '5:00-6:00PM#VERY_HIGH', '6:00-7:00PM#VERY_HIGH'] => 4:00-5:00PM#VERY_HIGH,	(Conf: 97%, Supp: 7%)

['THURSDAY', '2:00-3:00AM#VERY_LOW', '11:00-12:00AM#LOW'] => 3:00-4:00AM#VERY_LOW,	(Conf: 97%, Supp: 7%)

['WEDNESDAY', '2:00-3:00PM#VERY_HIGH'] => 5:00-6:00PM#VERY_HIGH,	(Conf: 97%, Supp: 7%)

['WEDNESDAY', '8:00-9:00AM#VERY_HIGH', '5:00-6:00PM#VERY_HIGH'] => 4:00-5:00PM#VERY_HIGH,	(Conf: 96%, Supp: 7%)

['WEDNESDAY', '8:00-9:00AM#VERY_HIGH', '4:00-5:00PM#VERY_HIGH'] => 5:00-6:00PM#VERY_HIGH,	(Conf: 96%, Supp: 7%)

['FRIDAY', '4:00-5:00PM#VERY_LOW', '5:00-6:00PM#VERY_LOW'] => 3:00-4:00PM#VERY_LOW,	(Conf: 96%, Supp: 8%)

['FRIDAY', '4:00-5:00PM#VERY_LOW', '6:00-7:00PM#VERY_LOW', '8:00-9:00PM#VERY_LOW'] => 3:00-4:00PM#VERY_LOW,	(Conf: 96%, Supp: 8%)

['FRIDAY', '4:00-5:00PM#VERY_LOW', '5:00-6:00PM#VERY_LOW', '8:00-9:00PM#VERY_LOW'] => 3:00-4:00PM#VERY_LOW,	(Conf: 96%, Supp: 8%)

['WEDNESDAY', '4:00-5:00PM#VERY_HIGH', '5:00-6:00PM#VERY_HIGH'] => 3:00-4:00PM#VERY_HIGH,	(Conf: 96%, Supp: 8%)

['WEDNESDAY', '3:00-4:00PM#VERY_HIGH', '4:00-5:00PM#VERY_HIGH'] => 5:00-6:00PM#VERY_HIGH,	(Conf: 96%, Supp: 8%)

['FRIDAY', '5:00-6:00PM#VERY_LOW', '8:00-9:00PM#VERY_LOW'] => 3:00-4:00PM#VERY_LOW,	(Conf: 96%, Supp: 8%)

['THURSDAY', '2:00-3:00PM#VERY_HIGH'] => 3:00-4:00PM#VERY_HIGH,	(Conf: 96%, Supp: 7%)

['WEDNESDAY', '8:00-9:00AM#VERY_HIGH', '5:00-6:00PM#VERY_HIGH'] => 3:00-4:00PM#VERY_HIGH,	(Conf: 96%, Supp: 7%)

['WEDNESDAY', '8:00-9:00AM#VERY_HIGH', '3:00-4:00PM#VERY_HIGH'] => 5:00-6:00PM#VERY_HIGH,	(Conf: 96%, Supp: 7%)

['FRIDAY', '4:00-5:00PM#VERY_LOW', '5:00-6:00PM#VERY_LOW', '6:00-7:00PM#VERY_LOW', '8:00-9:00PM#VERY_LOW'] => 3:00-4:00PM#VERY_LOW,	(Conf: 96%, Supp: 8%)

['WEDNESDAY', '2:00-3:00PM#VERY_HIGH', '3:00-4:00PM#VERY_HIGH', '4:00-5:00PM#VERY_HIGH', '5:00-6:00PM#VERY_HIGH'] => 6:00-7:00PM#VERY_HIGH,	(Conf: 96%, Supp: 7%)

['FRIDAY', '5:00-6:00PM#VERY_LOW', '6:00-7:00PM#VERY_LOW', '8:00-9:00PM#VERY_LOW'] => 3:00-4:00PM#VERY_LOW,	(Conf: 96%, Supp: 8%)

['FRIDAY', '5:00-6:00PM#VERY_LOW'] => 3:00-4:00PM#VERY_LOW,	(Conf: 96%, Supp: 8%)

['TUESDAY', '3:00-4:00PM#VERY_HIGH', '5:00-6:00PM#VERY_HIGH'] => 4:00-5:00PM#VERY_HIGH,	(Conf: 96%, Supp: 7%)

['TUESDAY', '1:00-2:00AM#VERY_LOW'] => 2:00-3:00AM#VERY_LOW,	(Conf: 96%, Supp: 8%)

['WEDNESDAY', '2:00-3:00AM#VERY_LOW', '11:00-12:00AM#LOW'] => 3:00-4:00AM#VERY_LOW,	(Conf: 96%, Supp: 7%)

['FRIDAY', '4:00-5:00PM#VERY_LOW'] => 3:00-4:00PM#VERY_LOW,	(Conf: 96%, Supp: 8%)

['FRIDAY', '4:00-5:00PM#VERY_LOW', '5:00-6:00PM#VERY_LOW', '6:00-7:00PM#VERY_LOW'] => 3:00-4:00PM#VERY_LOW,	(Conf: 96%, Supp: 8%)

['FRIDAY', '4:00-5:00PM#VERY_LOW', '6:00-7:00PM#VERY_LOW'] => 3:00-4:00PM#VERY_LOW,	(Conf: 96%, Supp: 8%)

['WEDNESDAY', '2:00-3:00PM#VERY_HIGH', '4:00-5:00PM#VERY_HIGH', '5:00-6:00PM#VERY_HIGH'] => 6:00-7:00PM#VERY_HIGH,	(Conf: 96%, Supp: 7%)

['FRIDAY', '8:00-9:00PM#VERY_LOW'] => 6:00-7:00PM#VERY_LOW,	(Conf: 96%, Supp: 9%)

['WEDNESDAY', '5:00-6:00PM#VERY_HIGH', '6:00-7:00PM#VERY_HIGH'] => 3:00-4:00PM#VERY_HIGH,	(Conf: 96%, Supp: 8%)

['FRIDAY', '5:00-6:00PM#VERY_LOW', '6:00-7:00PM#VERY_LOW'] => 3:00-4:00PM#VERY_LOW,	(Conf: 96%, Supp: 8%)

['FRIDAY', '4:00-5:00PM#VERY_LOW', '8:00-9:00PM#VERY_LOW'] => 3:00-4:00PM#VERY_LOW,	(Conf: 96%, Supp: 8%)

['THURSDAY', '2:00-3:00AM#VERY_LOW'] => 3:00-4:00AM#VERY_LOW,	(Conf: 96%, Supp: 11%)

['WEDNESDAY', '8:00-9:00AM#VERY_HIGH', '4:00-5:00PM#VERY_HIGH'] => 3:00-4:00PM#VERY_HIGH,	(Conf: 96%, Supp: 7%)

['WEDNESDAY', '8:00-9:00AM#VERY_HIGH', '3:00-4:00PM#VERY_HIGH'] => 4:00-5:00PM#VERY_HIGH,	(Conf: 96%, Supp: 7%)

['TUESDAY', '4:00-5:00PM#VERY_HIGH', '5:00-6:00PM#VERY_HIGH', '6:00-7:00PM#VERY_HIGH'] => 3:00-4:00PM#VERY_HIGH,	(Conf: 95%, Supp: 7%)

['TUESDAY', '11:00-12:00AM#LOW'] => 3:00-4:00AM#VERY_LOW,	(Conf: 95%, Supp: 7%)

['WEDNESDAY', '2:00-3:00PM#VERY_HIGH', '3:00-4:00PM#VERY_HIGH', '4:00-5:00PM#VERY_HIGH'] => 6:00-7:00PM#VERY_HIGH,	(Conf: 95%, Supp: 7%)

['TUESDAY', '4:00-5:00PM#VERY_HIGH', '6:00-7:00PM#VERY_HIGH'] => 3:00-4:00PM#VERY_HIGH,	(Conf: 95%, Supp: 7%)

['WEDNESDAY', '6:00-7:00PM#VERY_HIGH'] => 3:00-4:00PM#VERY_HIGH,	(Conf: 95%, Supp: 8%)

['WEDNESDAY', '2:00-3:00PM#VERY_HIGH', '3:00-4:00PM#VERY_HIGH', '5:00-6:00PM#VERY_HIGH'] => 6:00-7:00PM#VERY_HIGH,	(Conf: 95%, Supp: 7%)

['WEDNESDAY', '2:00-3:00PM#VERY_HIGH', '4:00-5:00PM#VERY_HIGH'] => 6:00-7:00PM#VERY_HIGH,	(Conf: 95%, Supp: 7%)

['FRIDAY', '2:00-3:00AM#VERY_LOW'] => 3:00-4:00AM#VERY_LOW,	(Conf: 95%, Supp: 10%)

['TUESDAY', '2:00-3:00AM#VERY_LOW'] => 3:00-4:00AM#VERY_LOW,	(Conf: 95%, Supp: 11%)

['THURSDAY', '12:00-1:00AM#LOW', '2:00-3:00AM#VERY_LOW'] => 3:00-4:00AM#VERY_LOW,	(Conf: 95%, Supp: 7%)

['WEDNESDAY', '2:00-3:00AM#VERY_LOW'] => 3:00-4:00AM#VERY_LOW,	(Conf: 95%, Supp: 11%)

['WEDNESDAY', '2:00-3:00PM#VERY_HIGH', '5:00-6:00PM#VERY_HIGH'] => 6:00-7:00PM#VERY_HIGH,	(Conf: 95%, Supp: 7%)

['TUESDAY', '6:00-7:00PM#VERY_HIGH'] => 4:00-5:00PM#VERY_HIGH,	(Conf: 94%, Supp: 7%)

['WEDNESDAY', '4:00-5:00PM#VERY_HIGH'] => 5:00-6:00PM#VERY_HIGH,	(Conf: 94%, Supp: 8%)

['WEDNESDAY', '3:00-4:00PM#VERY_HIGH'] => 5:00-6:00PM#VERY_HIGH,	(Conf: 94%, Supp: 8%)

['TUESDAY', '5:00-6:00PM#VERY_HIGH', '6:00-7:00PM#VERY_HIGH'] => 3:00-4:00PM#VERY_HIGH,	(Conf: 94%, Supp: 7%)

['WEDNESDAY', '4:00-5:00PM#VERY_HIGH'] => 3:00-4:00PM#VERY_HIGH,	(Conf: 94%, Supp: 8%)

['WEDNESDAY', '3:00-4:00PM#VERY_HIGH'] => 4:00-5:00PM#VERY_HIGH,	(Conf: 94%, Supp: 8%)

['THURSDAY', '6:00-7:00PM#VERY_HIGH'] => 3:00-4:00PM#VERY_HIGH,	(Conf: 94%, Supp: 8%)

['WEDNESDAY', '3:00-4:00AM#VERY_LOW', '11:00-12:00AM#LOW'] => 2:00-3:00AM#VERY_LOW,	(Conf: 94%, Supp: 7%)

['WEDNESDAY', '2:00-3:00PM#VERY_HIGH', '3:00-4:00PM#VERY_HIGH'] => 6:00-7:00PM#VERY_HIGH,	(Conf: 94%, Supp: 7%)

['FRIDAY', '6:00-7:00PM#VERY_LOW'] => 3:00-4:00PM#VERY_LOW,	(Conf: 93%, Supp: 8%)

['TUESDAY', '3:00-4:00PM#VERY_HIGH'] => 5:00-6:00PM#VERY_HIGH,	(Conf: 93%, Supp: 8%)

['FRIDAY', '8:00-9:00PM#VERY_LOW'] => 4:00-5:00PM#VERY_LOW,	(Conf: 93%, Supp: 9%)

['FRIDAY', '6:00-7:00PM#VERY_LOW', '8:00-9:00PM#VERY_LOW'] => 3:00-4:00PM#VERY_LOW,	(Conf: 93%, Supp: 8%)

['TUESDAY', '5:00-6:00PM#VERY_HIGH'] => 4:00-5:00PM#VERY_HIGH,	(Conf: 93%, Supp: 8%)

['WEDNESDAY', '3:00-4:00PM#VERY_HIGH', '4:00-5:00PM#VERY_HIGH', '5:00-6:00PM#VERY_HIGH'] => 6:00-7:00PM#VERY_HIGH,	(Conf: 93%, Supp: 8%)

['THURSDAY', '3:00-4:00AM#VERY_LOW', '11:00-12:00AM#LOW'] => 2:00-3:00AM#VERY_LOW,	(Conf: 93%, Supp: 7%)

['FRIDAY', '8:00-9:00PM#VERY_LOW'] => 5:00-6:00PM#VERY_LOW,	(Conf: 93%, Supp: 9%)

['WEDNESDAY', '2:00-3:00PM#VERY_HIGH'] => 6:00-7:00PM#VERY_HIGH,	(Conf: 93%, Supp: 7%)

['THURSDAY', '11:00-12:00AM#LOW'] => 3:00-4:00AM#VERY_LOW,	(Conf: 93%, Supp: 7%)

['THURSDAY', '2:00-3:00PM#VERY_HIGH', '3:00-4:00PM#VERY_HIGH'] => 6:00-7:00PM#VERY_HIGH,	(Conf: 93%, Supp: 7%)

['TUESDAY', '6:00-7:00PM#VERY_HIGH'] => 3:00-4:00PM#VERY_HIGH,	(Conf: 92%, Supp: 7%)

['WEDNESDAY', '5:00-6:00PM#VERY_HIGH'] => 4:00-5:00PM#VERY_HIGH,	(Conf: 92%, Supp: 8%)

['WEDNESDAY', '5:00-6:00PM#VERY_HIGH'] => 3:00-4:00PM#VERY_HIGH,	(Conf: 92%, Supp: 8%)

['TUESDAY', '4:00-5:00PM#VERY_HIGH', '5:00-6:00PM#VERY_HIGH'] => 3:00-4:00PM#VERY_HIGH,	(Conf: 92%, Supp: 7%)

['TUESDAY', '3:00-4:00AM#VERY_LOW', '11:00-12:00AM#LOW'] => 2:00-3:00AM#VERY_LOW,	(Conf: 92%, Supp: 7%)

['WEDNESDAY', '4:00-5:00PM#VERY_HIGH', '5:00-6:00PM#VERY_HIGH'] => 6:00-7:00PM#VERY_HIGH,	(Conf: 92%, Supp: 8%)

['WEDNESDAY', '12:00-1:00AM#LOW', '2:00-3:00AM#VERY_LOW'] => 3:00-4:00AM#VERY_LOW,	(Conf: 92%, Supp: 7%)

['TUESDAY', '4:00-5:00PM#VERY_HIGH'] => 3:00-4:00PM#VERY_HIGH,	(Conf: 91%, Supp: 8%)

['TUESDAY', '3:00-4:00PM#VERY_HIGH'] => 4:00-5:00PM#VERY_HIGH,	(Conf: 91%, Supp: 8%)

['WEDNESDAY', '3:00-4:00PM#VERY_HIGH', '5:00-6:00PM#VERY_HIGH'] => 6:00-7:00PM#VERY_HIGH,	(Conf: 91%, Supp: 8%)

['TUESDAY', '3:00-4:00PM#VERY_HIGH', '4:00-5:00PM#VERY_HIGH', '5:00-6:00PM#VERY_HIGH'] => 6:00-7:00PM#VERY_HIGH,	(Conf: 90%, Supp: 7%)

['WEDNESDAY', '3:00-4:00PM#VERY_HIGH', '4:00-5:00PM#VERY_HIGH'] => 6:00-7:00PM#VERY_HIGH,	(Conf: 90%, Supp: 8%)

['TUESDAY', '5:00-6:00PM#VERY_HIGH'] => 3:00-4:00PM#VERY_HIGH,	(Conf: 90%, Supp: 8%)

['WEDNESDAY', '11:00-12:00AM#LOW'] => 3:00-4:00AM#VERY_LOW,	(Conf: 90%, Supp: 7%)

['FRIDAY', '8:00-9:00PM#VERY_LOW'] => 3:00-4:00PM#VERY_LOW,	(Conf: 90%, Supp: 8%)

['THURSDAY', '2:00-3:00PM#VERY_HIGH'] => 6:00-7:00PM#VERY_HIGH,	(Conf: 90%, Supp: 7%)

['WEDNESDAY', '3:00-4:00PM#VERY_HIGH', '4:00-5:00PM#VERY_HIGH', '6:00-7:00PM#VERY_HIGH'] => 2:00-3:00PM#VERY_HIGH,	(Conf: 89%, Supp: 7%)

['TUESDAY', '3:00-4:00PM#VERY_HIGH', '4:00-5:00PM#VERY_HIGH'] => 6:00-7:00PM#VERY_HIGH,	(Conf: 89%, Supp: 7%)

['TUESDAY', '11:00-12:00AM#LOW'] => 2:00-3:00AM#VERY_LOW,	(Conf: 89%, Supp: 7%)

['WEDNESDAY', '3:00-4:00PM#VERY_HIGH', '5:00-6:00PM#VERY_HIGH', '6:00-7:00PM#VERY_HIGH'] => 2:00-3:00PM#VERY_HIGH,	(Conf: 89%, Supp: 7%)

['WEDNESDAY', '3:00-4:00PM#VERY_HIGH', '4:00-5:00PM#VERY_HIGH', '5:00-6:00PM#VERY_HIGH', '6:00-7:00PM#VERY_HIGH'] => 2:00-3:00PM#VERY_HIGH,	(Conf: 89%, Supp: 7%)

['THURSDAY', '11:00-12:00AM#LOW'] => 2:00-3:00AM#VERY_LOW,	(Conf: 89%, Supp: 7%)

['WEDNESDAY', '11:00-12:00AM#LOW'] => 2:00-3:00AM#VERY_LOW,	(Conf: 88%, Supp: 7%)

['TUESDAY', '3:00-4:00AM#VERY_LOW'] => 2:00-3:00AM#VERY_LOW,	(Conf: 88%, Supp: 11%)

['TUESDAY', '3:00-4:00PM#VERY_HIGH', '5:00-6:00PM#VERY_HIGH'] => 6:00-7:00PM#VERY_HIGH,	(Conf: 88%, Supp: 7%)

['WEDNESDAY', '3:00-4:00AM#VERY_LOW'] => 2:00-3:00AM#VERY_LOW,	(Conf: 88%, Supp: 11%)

['WEDNESDAY', '4:00-5:00PM#VERY_HIGH', '5:00-6:00PM#VERY_HIGH', '6:00-7:00PM#VERY_HIGH'] => 2:00-3:00PM#VERY_HIGH,	(Conf: 88%, Supp: 7%)

['WEDNESDAY', '3:00-4:00PM#VERY_HIGH', '6:00-7:00PM#VERY_HIGH'] => 2:00-3:00PM#VERY_HIGH,	(Conf: 88%, Supp: 7%)

['THURSDAY', '3:00-4:00PM#VERY_HIGH', '6:00-7:00PM#VERY_HIGH'] => 2:00-3:00PM#VERY_HIGH,	(Conf: 88%, Supp: 7%)

['WEDNESDAY', '3:00-4:00PM#VERY_HIGH', '4:00-5:00PM#VERY_HIGH', '5:00-6:00PM#VERY_HIGH'] => 2:00-3:00PM#VERY_HIGH,	(Conf: 87%, Supp: 7%)

['WEDNESDAY', '4:00-5:00PM#VERY_HIGH'] => 6:00-7:00PM#VERY_HIGH,	(Conf: 87%, Supp: 8%)

['WEDNESDAY', '5:00-6:00PM#VERY_HIGH'] => 6:00-7:00PM#VERY_HIGH,	(Conf: 87%, Supp: 8%)

['WEDNESDAY', '4:00-5:00PM#VERY_HIGH', '6:00-7:00PM#VERY_HIGH'] => 2:00-3:00PM#VERY_HIGH,	(Conf: 87%, Supp: 7%)

['TUESDAY', '4:00-5:00PM#VERY_HIGH', '5:00-6:00PM#VERY_HIGH'] => 6:00-7:00PM#VERY_HIGH,	(Conf: 87%, Supp: 7%)

['WEDNESDAY', '5:00-6:00PM#VERY_HIGH', '6:00-7:00PM#VERY_HIGH'] => 2:00-3:00PM#VERY_HIGH,	(Conf: 87%, Supp: 7%)

['WEDNESDAY', '3:00-4:00PM#VERY_HIGH'] => 6:00-7:00PM#VERY_HIGH,	(Conf: 86%, Supp: 8%)

['THURSDAY', '3:00-4:00PM#VERY_HIGH'] => 6:00-7:00PM#VERY_HIGH,	(Conf: 86%, Supp: 8%)

['FRIDAY', '3:00-4:00PM#VERY_LOW', '8:00-9:00PM#VERY_LOW'] => 1:00-2:00PM#VERY_LOW,	(Conf: 85%, Supp: 7%)

['FRIDAY', '3:00-4:00PM#VERY_LOW', '5:00-6:00PM#VERY_LOW', '6:00-7:00PM#VERY_LOW', '8:00-9:00PM#VERY_LOW'] => 1:00-2:00PM#VERY_LOW,	(Conf: 85%, Supp: 7%)

['FRIDAY', '3:00-4:00PM#VERY_LOW', '6:00-7:00PM#VERY_LOW', '8:00-9:00PM#VERY_LOW'] => 1:00-2:00PM#VERY_LOW,	(Conf: 85%, Supp: 7%)

['FRIDAY', '3:00-4:00PM#VERY_LOW'] => 1:00-2:00PM#VERY_LOW,	(Conf: 85%, Supp: 7%)

['FRIDAY', '3:00-4:00PM#VERY_LOW', '4:00-5:00PM#VERY_LOW', '5:00-6:00PM#VERY_LOW'] => 1:00-2:00PM#VERY_LOW,	(Conf: 85%, Supp: 7%)

['TUESDAY', '4:00-5:00PM#VERY_HIGH'] => 6:00-7:00PM#VERY_HIGH,	(Conf: 85%, Supp: 7%)

['FRIDAY', '3:00-4:00PM#VERY_LOW', '5:00-6:00PM#VERY_LOW'] => 1:00-2:00PM#VERY_LOW,	(Conf: 85%, Supp: 7%)

['WEDNESDAY', '3:00-4:00PM#VERY_HIGH', '4:00-5:00PM#VERY_HIGH'] => 2:00-3:00PM#VERY_HIGH,	(Conf: 85%, Supp: 7%)

['WEDNESDAY', '3:00-4:00PM#VERY_HIGH', '5:00-6:00PM#VERY_HIGH'] => 2:00-3:00PM#VERY_HIGH,	(Conf: 85%, Supp: 7%)

['FRIDAY', '3:00-4:00PM#VERY_LOW', '4:00-5:00PM#VERY_LOW', '8:00-9:00PM#VERY_LOW'] => 1:00-2:00PM#VERY_LOW,	(Conf: 85%, Supp: 7%)

['WEDNESDAY', '10:00-11:00PM#MED'] => 12:00-1:00AM#LOW,	(Conf: 85%, Supp: 7%)

['FRIDAY', '3:00-4:00PM#VERY_LOW', '4:00-5:00PM#VERY_LOW', '6:00-7:00PM#VERY_LOW', '8:00-9:00PM#VERY_LOW'] => 1:00-2:00PM#VERY_LOW,	(Conf: 85%, Supp: 7%)

['FRIDAY', '3:00-4:00PM#VERY_LOW', '5:00-6:00PM#VERY_LOW', '6:00-7:00PM#VERY_LOW'] => 1:00-2:00PM#VERY_LOW,	(Conf: 85%, Supp: 7%)

['FRIDAY', '3:00-4:00PM#VERY_LOW', '6:00-7:00PM#VERY_LOW'] => 1:00-2:00PM#VERY_LOW,	(Conf: 85%, Supp: 7%)

['FRIDAY', '3:00-4:00PM#VERY_LOW', '4:00-5:00PM#VERY_LOW', '5:00-6:00PM#VERY_LOW', '6:00-7:00PM#VERY_LOW', '8:00-9:00PM#VERY_LOW'] => 1:00-2:00PM#VERY_LOW,	(Conf: 85%, Supp: 7%)

['WEDNESDAY', '12:00-1:00AM#LOW', '3:00-4:00AM#VERY_LOW'] => 2:00-3:00AM#VERY_LOW,	(Conf: 85%, Supp: 7%)

['FRIDAY', '3:00-4:00PM#VERY_LOW', '4:00-5:00PM#VERY_LOW', '5:00-6:00PM#VERY_LOW', '6:00-7:00PM#VERY_LOW'] => 1:00-2:00PM#VERY_LOW,	(Conf: 85%, Supp: 7%)

['FRIDAY', '3:00-4:00PM#VERY_LOW', '4:00-5:00PM#VERY_LOW', '6:00-7:00PM#VERY_LOW'] => 1:00-2:00PM#VERY_LOW,	(Conf: 85%, Supp: 7%)

['FRIDAY', '3:00-4:00PM#VERY_LOW', '5:00-6:00PM#VERY_LOW', '8:00-9:00PM#VERY_LOW'] => 1:00-2:00PM#VERY_LOW,	(Conf: 85%, Supp: 7%)

['WEDNESDAY', '6:00-7:00PM#VERY_HIGH'] => 2:00-3:00PM#VERY_HIGH,	(Conf: 85%, Supp: 7%)

['THURSDAY', '3:00-4:00AM#VERY_LOW'] => 2:00-3:00AM#VERY_LOW,	(Conf: 85%, Supp: 11%)

['FRIDAY', '3:00-4:00PM#VERY_LOW', '4:00-5:00PM#VERY_LOW', '5:00-6:00PM#VERY_LOW', '8:00-9:00PM#VERY_LOW'] => 1:00-2:00PM#VERY_LOW,	(Conf: 85%, Supp: 7%)

['FRIDAY', '3:00-4:00PM#VERY_LOW', '4:00-5:00PM#VERY_LOW'] => 1:00-2:00PM#VERY_LOW,	(Conf: 85%, Supp: 7%)

['WEDNESDAY', '8:00-9:00AM#VERY_HIGH'] => 3:00-4:00PM#VERY_HIGH,	(Conf: 84%, Supp: 7%)

['THURSDAY', '8:00-9:00AM#VERY_HIGH'] => 3:00-4:00PM#VERY_HIGH,	(Conf: 84%, Supp: 7%)

['TUESDAY', '5:00-6:00PM#VERY_HIGH'] => 6:00-7:00PM#VERY_HIGH,	(Conf: 84%, Supp: 7%)

['TUESDAY', '3:00-4:00PM#VERY_HIGH'] => 6:00-7:00PM#VERY_HIGH,	(Conf: 84%, Supp: 7%)

['WEDNESDAY', '4:00-5:00PM#VERY_HIGH', '5:00-6:00PM#VERY_HIGH'] => 2:00-3:00PM#VERY_HIGH,	(Conf: 84%, Supp: 7%)

['WEDNESDAY', '8:00-9:00AM#VERY_HIGH'] => 4:00-5:00PM#VERY_HIGH,	(Conf: 84%, Supp: 7%)

['TUESDAY', '8:00-9:00AM#VERY_HIGH'] => 5:00-6:00PM#VERY_HIGH,	(Conf: 84%, Supp: 7%)

['THURSDAY', '6:00-7:00PM#VERY_HIGH'] => 2:00-3:00PM#VERY_HIGH,	(Conf: 83%, Supp: 7%)

['WEDNESDAY', '8:00-9:00AM#VERY_HIGH'] => 5:00-6:00PM#VERY_HIGH,	(Conf: 83%, Supp: 7%)

['FRIDAY', '4:00-5:00PM#VERY_LOW', '8:00-9:00PM#VERY_LOW'] => 1:00-2:00PM#VERY_LOW,	(Conf: 82%, Supp: 7%)

['FRIDAY', '4:00-5:00PM#VERY_LOW', '5:00-6:00PM#VERY_LOW', '6:00-7:00PM#VERY_LOW', '8:00-9:00PM#VERY_LOW'] => 1:00-2:00PM#VERY_LOW,	(Conf: 82%, Supp: 7%)

['THURSDAY', '3:00-4:00PM#VERY_HIGH'] => 8:00-9:00AM#VERY_HIGH,	(Conf: 82%, Supp: 7%)

['FRIDAY', '4:00-5:00PM#VERY_LOW', '5:00-6:00PM#VERY_LOW'] => 1:00-2:00PM#VERY_LOW,	(Conf: 82%, Supp: 7%)

['FRIDAY', '5:00-6:00PM#VERY_LOW', '6:00-7:00PM#VERY_LOW'] => 1:00-2:00PM#VERY_LOW,	(Conf: 82%, Supp: 7%)

['FRIDAY', '5:00-6:00PM#VERY_LOW'] => 1:00-2:00PM#VERY_LOW,	(Conf: 82%, Supp: 7%)

['FRIDAY', '4:00-5:00PM#VERY_LOW', '5:00-6:00PM#VERY_LOW', '8:00-9:00PM#VERY_LOW'] => 1:00-2:00PM#VERY_LOW,	(Conf: 82%, Supp: 7%)

['FRIDAY', '4:00-5:00PM#VERY_LOW', '5:00-6:00PM#VERY_LOW', '6:00-7:00PM#VERY_LOW'] => 1:00-2:00PM#VERY_LOW,	(Conf: 82%, Supp: 7%)

['FRIDAY', '3:00-4:00AM#VERY_LOW'] => 2:00-3:00AM#VERY_LOW,	(Conf: 82%, Supp: 10%)

['TUESDAY', '8:00-9:00AM#VERY_HIGH'] => 3:00-4:00PM#VERY_HIGH,	(Conf: 82%, Supp: 7%)

['FRIDAY', '5:00-6:00PM#VERY_LOW', '6:00-7:00PM#VERY_LOW', '8:00-9:00PM#VERY_LOW'] => 1:00-2:00PM#VERY_LOW,	(Conf: 82%, Supp: 7%)

['FRIDAY', '4:00-5:00PM#VERY_LOW', '6:00-7:00PM#VERY_LOW'] => 1:00-2:00PM#VERY_LOW,	(Conf: 82%, Supp: 7%)

['THURSDAY', '12:00-1:00AM#LOW', '3:00-4:00AM#VERY_LOW'] => 2:00-3:00AM#VERY_LOW,	(Conf: 82%, Supp: 7%)

['FRIDAY', '5:00-6:00PM#VERY_LOW', '8:00-9:00PM#VERY_LOW'] => 1:00-2:00PM#VERY_LOW,	(Conf: 82%, Supp: 7%)

['FRIDAY', '4:00-5:00PM#VERY_LOW', '6:00-7:00PM#VERY_LOW', '8:00-9:00PM#VERY_LOW'] => 1:00-2:00PM#VERY_LOW,	(Conf: 82%, Supp: 7%)

['FRIDAY', '4:00-5:00PM#VERY_LOW'] => 1:00-2:00PM#VERY_LOW,	(Conf: 82%, Supp: 7%)

['THURSDAY', '3:00-4:00PM#VERY_HIGH'] => 2:00-3:00PM#VERY_HIGH,	(Conf: 81%, Supp: 7%)

['WEDNESDAY', '4:00-5:00PM#VERY_HIGH'] => 2:00-3:00PM#VERY_HIGH,	(Conf: 81%, Supp: 7%)

['WEDNESDAY', '3:00-4:00PM#VERY_HIGH'] => 2:00-3:00PM#VERY_HIGH,	(Conf: 81%, Supp: 7%)

['FRIDAY', '6:00-7:00PM#VERY_LOW', '8:00-9:00PM#VERY_LOW'] => 1:00-2:00PM#VERY_LOW,	(Conf: 80%, Supp: 7%)

['WEDNESDAY', '3:00-4:00PM#VERY_HIGH', '5:00-6:00PM#VERY_HIGH'] => 8:00-9:00AM#VERY_HIGH,	(Conf: 80%, Supp: 7%)

['TUESDAY', '3:00-4:00PM#VERY_HIGH'] => 2:00-3:00PM#VERY_HIGH,	(Conf: 80%, Supp: 7%)

['TUESDAY', '3:00-4:00PM#VERY_HIGH'] => 8:00-9:00AM#VERY_HIGH,	(Conf: 80%, Supp: 7%)

['FRIDAY', '6:00-7:00PM#VERY_LOW'] => 1:00-2:00PM#VERY_LOW,	(Conf: 80%, Supp: 7%)

['THURSDAY', '12:00-1:00AM#LOW'] => 3:00-4:00AM#VERY_LOW,	(Conf: 80%, Supp: 8%)

['WEDNESDAY', '3:00-4:00PM#VERY_HIGH', '4:00-5:00PM#VERY_HIGH'] => 8:00-9:00AM#VERY_HIGH,	(Conf: 80%, Supp: 7%)

